%YAML 1.1
%TAG !u! tag:unity3d.com,2011:
--- !u!1 &8780308296182242685
GameObject:
  m_ObjectHideFlags: 0
  m_CorrespondingSourceObject: {fileID: 0}
  m_PrefabInstance: {fileID: 0}
  m_PrefabAsset: {fileID: 0}
  serializedVersion: 6
  m_Component:
  - component: {fileID: 383707441420044729}
  - component: {fileID: 4122048487179986796}
  - component: {fileID: 7898265382521815887}
  m_Layer: 15
  m_Name: LoadingOverlay
  m_TagString: Loading
  m_Icon: {fileID: 0}
  m_NavMeshLayer: 0
  m_StaticEditorFlags: 0
  m_IsActive: 1
--- !u!224 &383707441420044729
RectTransform:
  m_ObjectHideFlags: 0
  m_CorrespondingSourceObject: {fileID: 0}
  m_PrefabInstance: {fileID: 0}
  m_PrefabAsset: {fileID: 0}
  m_GameObject: {fileID: 8780308296182242685}
  m_LocalRotation: {x: 0, y: 0, z: 0, w: 1}
  m_LocalPosition: {x: 0, y: 0, z: 0}
  m_LocalScale: {x: 1, y: 1, z: 1}
  m_Children:
  - {fileID: 1696589916807116887}
  m_Father: {fileID: 0}
  m_RootOrder: 0
  m_LocalEulerAnglesHint: {x: 0, y: 0, z: 0}
  m_AnchorMin: {x: 0, y: 0}
  m_AnchorMax: {x: 1, y: 1}
  m_AnchoredPosition: {x: 0, y: 0}
  m_SizeDelta: {x: 0, y: 0}
  m_Pivot: {x: 0.5, y: 0.5}
--- !u!222 &4122048487179986796
CanvasRenderer:
  m_ObjectHideFlags: 0
  m_CorrespondingSourceObject: {fileID: 0}
  m_PrefabInstance: {fileID: 0}
  m_PrefabAsset: {fileID: 0}
  m_GameObject: {fileID: 8780308296182242685}
  m_CullTransparentMesh: 0
--- !u!114 &7898265382521815887
MonoBehaviour:
  m_ObjectHideFlags: 0
  m_CorrespondingSourceObject: {fileID: 0}
  m_PrefabInstance: {fileID: 0}
  m_PrefabAsset: {fileID: 0}
  m_GameObject: {fileID: 8780308296182242685}
  m_Enabled: 1
  m_EditorHideFlags: 0
  m_Script: {fileID: 11500000, guid: fe87c0e1cc204ed48ad3b37840f39efc, type: 3}
  m_Name: 
  m_EditorClassIdentifier: 
  m_Material: {fileID: 0}
  m_Color: {r: 1, g: 1, b: 1, a: 0.392}
  m_RaycastTarget: 1
  m_Maskable: 1
  m_OnCullStateChanged:
    m_PersistentCalls:
      m_Calls: []
  m_Sprite: {fileID: 10907, guid: 0000000000000000f000000000000000, type: 0}
  m_Type: 1
  m_PreserveAspect: 0
  m_FillCenter: 1
  m_FillMethod: 4
  m_FillAmount: 1
  m_FillClockwise: 1
  m_FillOrigin: 0
  m_UseSpriteMesh: 0
  m_PixelsPerUnitMultiplier: 1
--- !u!1001 &1696589916820599895
PrefabInstance:
  m_ObjectHideFlags: 0
  serializedVersion: 2
  m_Modification:
    m_TransformParent: {fileID: 383707441420044729}
    m_Modifications:
    - target: {fileID: 100000, guid: cc97918c7380bfb4d96f9b5eac6a5cb7, type: 3}
      propertyPath: m_Name
      value: (fast) Circle half rotating fading 1
      objectReference: {fileID: 0}
    - target: {fileID: 100000, guid: cc97918c7380bfb4d96f9b5eac6a5cb7, type: 3}
      propertyPath: m_Layer
      value: 0
      objectReference: {fileID: 0}
    - target: {fileID: 100000, guid: cc97918c7380bfb4d96f9b5eac6a5cb7, type: 3}
      propertyPath: m_StaticEditorFlags
      value: 0
      objectReference: {fileID: 0}
    - target: {fileID: 100002, guid: cc97918c7380bfb4d96f9b5eac6a5cb7, type: 3}
      propertyPath: m_Layer
      value: 0
      objectReference: {fileID: 0}
    - target: {fileID: 100002, guid: cc97918c7380bfb4d96f9b5eac6a5cb7, type: 3}
      propertyPath: m_StaticEditorFlags
      value: 0
      objectReference: {fileID: 0}
    - target: {fileID: 22400000, guid: cc97918c7380bfb4d96f9b5eac6a5cb7, type: 3}
      propertyPath: m_Pivot.x
      value: 0.5
      objectReference: {fileID: 0}
    - target: {fileID: 22400000, guid: cc97918c7380bfb4d96f9b5eac6a5cb7, type: 3}
      propertyPath: m_Pivot.y
      value: 0.5
      objectReference: {fileID: 0}
    - target: {fileID: 22400000, guid: cc97918c7380bfb4d96f9b5eac6a5cb7, type: 3}
      propertyPath: m_RootOrder
      value: 0
      objectReference: {fileID: 0}
    - target: {fileID: 22400000, guid: cc97918c7380bfb4d96f9b5eac6a5cb7, type: 3}
      propertyPath: m_AnchorMax.x
      value: 0.5
      objectReference: {fileID: 0}
    - target: {fileID: 22400000, guid: cc97918c7380bfb4d96f9b5eac6a5cb7, type: 3}
      propertyPath: m_AnchorMax.y
      value: 0.5
      objectReference: {fileID: 0}
    - target: {fileID: 22400000, guid: cc97918c7380bfb4d96f9b5eac6a5cb7, type: 3}
      propertyPath: m_AnchorMin.x
      value: 0.5
      objectReference: {fileID: 0}
    - target: {fileID: 22400000, guid: cc97918c7380bfb4d96f9b5eac6a5cb7, type: 3}
      propertyPath: m_AnchorMin.y
      value: 0.5
      objectReference: {fileID: 0}
    - target: {fileID: 22400000, guid: cc97918c7380bfb4d96f9b5eac6a5cb7, type: 3}
      propertyPath: m_SizeDelta.x
      value: 367.57233
      objectReference: {fileID: 0}
    - target: {fileID: 22400000, guid: cc97918c7380bfb4d96f9b5eac6a5cb7, type: 3}
      propertyPath: m_SizeDelta.y
      value: 318.1297
      objectReference: {fileID: 0}
    - target: {fileID: 22400000, guid: cc97918c7380bfb4d96f9b5eac6a5cb7, type: 3}
      propertyPath: m_LocalPosition.x
      value: 0
      objectReference: {fileID: 0}
    - target: {fileID: 22400000, guid: cc97918c7380bfb4d96f9b5eac6a5cb7, type: 3}
      propertyPath: m_LocalPosition.y
      value: 0
      objectReference: {fileID: 0}
    - target: {fileID: 22400000, guid: cc97918c7380bfb4d96f9b5eac6a5cb7, type: 3}
      propertyPath: m_LocalPosition.z
      value: 0
      objectReference: {fileID: 0}
    - target: {fileID: 22400000, guid: cc97918c7380bfb4d96f9b5eac6a5cb7, type: 3}
      propertyPath: m_LocalRotation.w
      value: 1
      objectReference: {fileID: 0}
    - target: {fileID: 22400000, guid: cc97918c7380bfb4d96f9b5eac6a5cb7, type: 3}
      propertyPath: m_LocalRotation.x
      value: -0
      objectReference: {fileID: 0}
    - target: {fileID: 22400000, guid: cc97918c7380bfb4d96f9b5eac6a5cb7, type: 3}
      propertyPath: m_LocalRotation.y
      value: -0
      objectReference: {fileID: 0}
    - target: {fileID: 22400000, guid: cc97918c7380bfb4d96f9b5eac6a5cb7, type: 3}
      propertyPath: m_LocalRotation.z
      value: -0
      objectReference: {fileID: 0}
    - target: {fileID: 22400000, guid: cc97918c7380bfb4d96f9b5eac6a5cb7, type: 3}
      propertyPath: m_AnchoredPosition.x
      value: -0.000015259
      objectReference: {fileID: 0}
    - target: {fileID: 22400000, guid: cc97918c7380bfb4d96f9b5eac6a5cb7, type: 3}
      propertyPath: m_AnchoredPosition.y
      value: 0
      objectReference: {fileID: 0}
    - target: {fileID: 22400000, guid: cc97918c7380bfb4d96f9b5eac6a5cb7, type: 3}
      propertyPath: m_LocalEulerAnglesHint.x
      value: 0
      objectReference: {fileID: 0}
    - target: {fileID: 22400000, guid: cc97918c7380bfb4d96f9b5eac6a5cb7, type: 3}
      propertyPath: m_LocalEulerAnglesHint.y
      value: 0
      objectReference: {fileID: 0}
    - target: {fileID: 22400000, guid: cc97918c7380bfb4d96f9b5eac6a5cb7, type: 3}
      propertyPath: m_LocalEulerAnglesHint.z
      value: 0
      objectReference: {fileID: 0}
    - target: {fileID: 22400002, guid: cc97918c7380bfb4d96f9b5eac6a5cb7, type: 3}
      propertyPath: m_SizeDelta.x
      value: 296.375
      objectReference: {fileID: 0}
    - target: {fileID: 22400002, guid: cc97918c7380bfb4d96f9b5eac6a5cb7, type: 3}
      propertyPath: m_SizeDelta.y
      value: 296.375
      objectReference: {fileID: 0}
    - target: {fileID: 22400002, guid: cc97918c7380bfb4d96f9b5eac6a5cb7, type: 3}
      propertyPath: m_AnchoredPosition.x
      value: 0.000022888
      objectReference: {fileID: 0}
    - target: {fileID: 22400002, guid: cc97918c7380bfb4d96f9b5eac6a5cb7, type: 3}
      propertyPath: m_AnchoredPosition.y
      value: -0.000022888
      objectReference: {fileID: 0}
    m_RemovedComponents: []
  m_SourcePrefab: {fileID: 100100000, guid: cc97918c7380bfb4d96f9b5eac6a5cb7, type: 3}
--- !u!224 &1696589916807116887 stripped
RectTransform:
  m_CorrespondingSourceObject: {fileID: 22400000, guid: cc97918c7380bfb4d96f9b5eac6a5cb7,
    type: 3}
  m_PrefabInstance: {fileID: 1696589916820599895}
  m_PrefabAsset: {fileID: 0}
