{
  "armatures": [
    {
      "_id": "5fa6da6e1dc3c79146acbe93",
      "articlenumber": 87010640,
      "category": "GRS",
      "dia": 5,
      "type": "DF",
      "code": "A00",
      "approved": "true",
      "name": "PN 05 AGJ 7/16\""
    },
    {
      "_id": "5fa6da6e1dc3c79146acbeae",
      "articlenumber": 87010000,
      "category": "GRS",
      "dia": 5,
      "type": "DF",
      "code": "B00",
      "approved": "true",
      "name": "PN 05 AGL M12x1.5 (6L)"
    },
    {
      "_id": "5fa6da6e1dc3c79146acbeb8",
      "articlenumber": 87010001,
      "category": "GRS",
      "dia": 5,
      "type": "DF",
      "code": "B01",
      "approved": "true",
      "name": "PN 05 AGL M14x1.5 (8L)"
    },
    {
      "_id": "5fa6da6e1dc3c79146acbfaa",
      "articlenumber": 87010367,
      "category": "GRS",
      "dia": 5,
      "type": "DF",
      "code": "L00",
      "approved": "true",
      "name": "PN 05 AGM M10x1.0"
    },
    {
      "_id": "5fa6da6e1dc3c79146acbed0",
      "articlenumber": 87010870,
      "category": "GRS",
      "dia": 5,
      "type": "DF",
      "code": "C00",
      "approved": "true",
      "name": "PN 05 AGN 1/8\""
    },
    {
      "_id": "5fa6da6e1dc3c79146acbef2",
      "articlenumber": 87010503,
      "category": "GRS",
      "dia": 5,
      "type": "DF",
      "code": "E01",
      "approved": "true",
      "name": "PN 05 AGR 1/4\""
    },
    {
      "_id": "5fa6da6e1dc3c79146acbef1",
      "articlenumber": 87010502,
      "category": "GRS",
      "dia": 5,
      "type": "DF",
      "code": "E00",
      "approved": "true",
      "name": "PN 05 AGR 1/8\""
    },
    {
      "_id": "5fa6da6e1dc3c79146acbf09",
      "articlenumber": 87010480,
      "category": "GRS",
      "dia": 5,
      "type": "DF",
      "code": "F00",
      "approved": "true",
      "name": "PN 05 AGRK 1/8\""
    },
    {
      "_id": "5fa6da6e1dc3c79146acbf26",
      "articlenumber": 87010671,
      "category": "GRS",
      "dia": 5,
      "type": "DF",
      "code": "H00",
      "approved": "true",
      "name": "PN 05 DKJ 7/16\""
    },
    {
      "_id": "5fa6da6e1dc3c79146acbf3b",
      "articlenumber": 87010701,
      "category": "GRS",
      "dia": 5,
      "type": "DF",
      "code": "H20",
      "approved": "true",
      "name": "PN 05 DKJ 7/16\" 45°"
    },
    {
      "_id": "5fa6da6e1dc3c79146acbf4b",
      "articlenumber": 87010727,
      "category": "GRS",
      "dia": 5,
      "type": "DF",
      "code": "H36",
      "approved": "true",
      "name": "PN 05 DKJ 7/16\" 90°"
    },
    {
      "_id": "5fa6da6e1dc3c79146acc062",
      "articlenumber": 87010394,
      "category": "GRS",
      "dia": 5,
      "type": "DF",
      "code": "P00",
      "approved": "true",
      "name": "PN 05 DKM M10x1.0"
    },
    {
      "_id": "5fa6da6e1dc3c79146acc074",
      "articlenumber": 87010425,
      "category": "GRS",
      "dia": 5,
      "type": "DF",
      "code": "P21",
      "approved": "true",
      "name": "PN 05 DKM M10x1.0 45°"
    },
    {
      "_id": "5fa6da6e1dc3c79146acc090",
      "articlenumber": 87010455,
      "category": "GRS",
      "dia": 5,
      "type": "DF",
      "code": "P41",
      "approved": "true",
      "name": "PN 05 DKM M10x1.0 90°"
    },
    {
      "_id": "5fa6da6e1dc3c79146acbf60",
      "articlenumber": 87010035,
      "category": "GRS",
      "dia": 5,
      "type": "DF",
      "code": "K00",
      "approved": "true",
      "name": "PN 05 DKOL M12x1.5 (6L)"
    },
    {
      "_id": "5fa6da6e1dc3c79146acbf7a",
      "articlenumber": 87010072,
      "category": "GRS",
      "dia": 5,
      "type": "DF",
      "code": "K27",
      "approved": "true",
      "name": "PN 05 DKOL M12x1.5 45° (6L)"
    },
    {
      "_id": "5fa6da6e1dc3c79146acbf8f",
      "articlenumber": 87010104,
      "category": "GRS",
      "dia": 5,
      "type": "DF",
      "code": "K49",
      "approved": "true",
      "name": "PN 05 DKOL M12x1.5 90° (6L)"
    },
    {
      "_id": "5fa6da6e1dc3c79146acbf5f",
      "articlenumber": 87010036,
      "category": "GRS",
      "dia": 5,
      "type": "DF",
      "code": "K01",
      "approved": "true",
      "name": "PN 05 DKOL M14x1.5 (8L)"
    },
    {
      "_id": "5fa6da6e1dc3c79146acbf7c",
      "articlenumber": 87010073,
      "category": "GRS",
      "dia": 5,
      "type": "DF",
      "code": "K28",
      "approved": "true",
      "name": "PN 05 DKOL M14x1.5 45° (8L)"
    },
    {
      "_id": "5fa6da6e1dc3c79146acbf92",
      "articlenumber": 87010105,
      "category": "GRS",
      "dia": 5,
      "type": "DF",
      "code": "K50",
      "approved": "true",
      "name": "PN 05 DKOL M14x1.5 90° (8L)"
    },
    {
      "_id": "5fa6da6e1dc3c79146acc013",
      "articlenumber": 87010218,
      "category": "GRS",
      "dia": 5,
      "type": "DF",
      "code": "N34",
      "approved": "true",
      "name": "PN 05 DKOS M14x1.5 90° (6S)"
    },
    {
      "_id": "5fa6da6e1dc3c79146acbff4",
      "articlenumber": 87010166,
      "category": "GRS",
      "dia": 5,
      "type": "DF",
      "code": "N02",
      "approved": "true",
      "name": "PN 05 DKOS M16x1.5 (8S)"
    },
    {
      "_id": "5fa6da6e1dc3c79146acc014",
      "articlenumber": 87010219,
      "category": "GRS",
      "dia": 5,
      "type": "DF",
      "code": "N35",
      "approved": "true",
      "name": "PN 05 DKOS M16x1.5 90° (8S)"
    },
    {
      "_id": "5fa6da6e1dc3c79146acc026",
      "articlenumber": 87010539,
      "category": "GRS",
      "dia": 5,
      "type": "DF",
      "code": "O01",
      "approved": "true",
      "name": "PN 05 DKR 1/4\""
    },
    {
      "_id": "5fa6da6e1dc3c79146acc03f",
      "articlenumber": 87010571,
      "category": "GRS",
      "dia": 5,
      "type": "DF",
      "code": "O23",
      "approved": "true",
      "name": "PN 05 DKR 1/4\" 45°"
    },
    {
      "_id": "5fa6da6e1dc3c79146acc04f",
      "articlenumber": 87010600,
      "category": "GRS",
      "dia": 5,
      "type": "DF",
      "code": "O42",
      "approved": "true",
      "name": "PN 05 DKR 1/4\" 90°"
    },
    {
      "_id": "5fa6da6e1dc3c79146acc025",
      "articlenumber": 87010538,
      "category": "GRS",
      "dia": 5,
      "type": "DF",
      "code": "O00",
      "approved": "true",
      "name": "PN 05 DKR 1/8\""
    },
    {
      "_id": "5fa6da6e1dc3c79146acc03a",
      "articlenumber": 87010570,
      "category": "GRS",
      "dia": 5,
      "type": "DF",
      "code": "O22",
      "approved": "true",
      "name": "PN 05 DKR 1/8\" 45°"
    },
    {
      "_id": "5fa6da6e1dc3c79146acc04e",
      "articlenumber": 87010599,
      "category": "GRS",
      "dia": 5,
      "type": "DF",
      "code": "O41",
      "approved": "true",
      "name": "PN 05 DKR 1/8\" 90°"
    },
    {
      "_id": "5fa6da6e1dc3c79146acc0b7",
      "articlenumber": 87011080,
      "category": "GRS",
      "dia": 5,
      "type": "DF",
      "code": "S00",
      "approved": "true",
      "name": "PN 05 RAM M10x1.5"
    },
    {
      "_id": "5fa6da6e1dc3c79146acc0b6",
      "articlenumber": 87011081,
      "category": "GRS",
      "dia": 5,
      "type": "DF",
      "code": "S01",
      "approved": "true",
      "name": "PN 05 RAM M12x1.5"
    },
    {
      "_id": "5fa6da6e1dc3c79146acc0cf",
      "articlenumber": 87011112,
      "category": "GRS",
      "dia": 5,
      "type": "DF",
      "code": "S23",
      "approved": "true",
      "name": "PN 05 RAR 1/4\""
    },
    {
      "_id": "5fa6da6e1dc3c79146acc0ce",
      "articlenumber": 87011111,
      "category": "GRS",
      "dia": 5,
      "type": "DF",
      "code": "S22",
      "approved": "true",
      "name": "PN 05 RAR 1/8\""
    },
    {
      "_id": "5fa6da6e1dc3c79146acc0db",
      "articlenumber": 87010246,
      "category": "GRS",
      "dia": 5,
      "type": "DF",
      "code": "T00",
      "approved": "true",
      "name": "PN 05 RSL 6L"
    },
    {
      "_id": "5fa6da6e1dc3c79146acc101",
      "articlenumber": 87010289,
      "category": "GRS",
      "dia": 5,
      "type": "DF",
      "code": "T33",
      "approved": "true",
      "name": "PN 05 RSL 6L 45°"
    },
    {
      "_id": "5fa6da6e1dc3c79146acc11a",
      "articlenumber": 87010327,
      "category": "GRS",
      "dia": 5,
      "type": "DF",
      "code": "T60",
      "approved": "true",
      "name": "PN 05 RSL 6L 90°"
    },
    {
      "_id": "5fa6da6e1dc3c79146acc0e6",
      "articlenumber": 87010247,
      "category": "GRS",
      "dia": 5,
      "type": "DF",
      "code": "T01",
      "approved": "true",
      "name": "PN 05 RSS 8S"
    },
    {
      "_id": "5fa6da6e1dc3c79146acc11b",
      "articlenumber": 87010328,
      "category": "GRS",
      "dia": 5,
      "type": "DF",
      "code": "T61",
      "approved": "true",
      "name": "PN 05 RSS 8S 90°"
    },
    {
      "_id": "5fa6da6e1dc3c79146acc196",
      "articlenumber": 87010002,
      "category": "GRW",
      "dia": 6,
      "type": "DF",
      "code": "B02",
      "approved": "true",
      "name": "PN 06 AGL M12x1.5 (6L)"
    },
    {
      "_id": "5fa6da6e1dc3c79146acc197",
      "articlenumber": 87010003,
      "category": "GRW",
      "dia": 6,
      "type": "DF",
      "code": "B03",
      "approved": "true",
      "name": "PN 06 AGL M14x1.5 (8L)"
    },
    {
      "_id": "5fa6da6e1dc3c79146acc195",
      "articlenumber": 87010004,
      "category": "GRW",
      "dia": 6,
      "type": "DF",
      "code": "B04",
      "approved": "true",
      "name": "PN 06 AGL M16x1.5 (10L)"
    },
    {
      "_id": "5fa6da6e1dc3c79146acc198",
      "articlenumber": 87010005,
      "category": "GRW",
      "dia": 6,
      "type": "DF",
      "code": "B05",
      "approved": "true",
      "name": "PN 06 AGL M18x1.5 (12L)"
    },
    {
      "_id": "5fa6da6e1dc3c79146acc240",
      "articlenumber": 87010368,
      "category": "GRW",
      "dia": 6,
      "type": "DF",
      "code": "L01",
      "approved": "true",
      "name": "PN 06 AGM M10x1.0"
    },
    {
      "_id": "5fa6da6e1dc3c79146acc23e",
      "articlenumber": 87010369,
      "category": "GRW",
      "dia": 6,
      "type": "DF",
      "code": "L02",
      "approved": "true",
      "name": "PN 06 AGM M12x1.5"
    },
    {
      "_id": "5fa6da6e1dc3c79146acc23f",
      "articlenumber": 87010370,
      "category": "GRW",
      "dia": 6,
      "type": "DF",
      "code": "L03",
      "approved": "true",
      "name": "PN 06 AGM M14x1.5"
    },
    {
      "_id": "5fa6da6e1dc3c79146acc242",
      "articlenumber": 87010371,
      "category": "GRW",
      "dia": 6,
      "type": "DF",
      "code": "L04",
      "approved": "true",
      "name": "PN 06 AGM M16x1.5"
    },
    {
      "_id": "5fa6da6e1dc3c79146acc1af",
      "articlenumber": 87010872,
      "category": "GRW",
      "dia": 6,
      "type": "DF",
      "code": "C02",
      "approved": "true",
      "name": "PN 06 AGN 1/4\""
    },
    {
      "_id": "5fa6da6e1dc3c79146acc1ae",
      "articlenumber": 87010871,
      "category": "GRW",
      "dia": 6,
      "type": "DF",
      "code": "C01",
      "approved": "true",
      "name": "PN 06 AGN 1/8\""
    },
    {
      "_id": "5fa6da6e1dc3c79146acc1b1",
      "articlenumber": 87010873,
      "category": "GRW",
      "dia": 6,
      "type": "DF",
      "code": "C03",
      "approved": "true",
      "name": "PN 06 AGN 3/8\""
    },
    {
      "_id": "5fa6da6e1dc3c79146acc1c3",
      "articlenumber": 87010507,
      "category": "GRW",
      "dia": 6,
      "type": "DF",
      "code": "E05",
      "approved": "true",
      "name": "PN 06 AGR 1/2\""
    },
    {
      "_id": "5fa6da6e1dc3c79146acc1c1",
      "articlenumber": 87010505,
      "category": "GRW",
      "dia": 6,
      "type": "DF",
      "code": "E03",
      "approved": "true",
      "name": "PN 06 AGR 1/4\""
    },
    {
      "_id": "5fa6da6e1dc3c79146acc1c2",
      "articlenumber": 87010504,
      "category": "GRW",
      "dia": 6,
      "type": "DF",
      "code": "E02",
      "approved": "true",
      "name": "PN 06 AGR 1/8\""
    },
    {
      "_id": "5fa6da6e1dc3c79146acc1c4",
      "articlenumber": 87010506,
      "category": "GRW",
      "dia": 6,
      "type": "DF",
      "code": "E04",
      "approved": "true",
      "name": "PN 06 AGR 3/8\""
    },
    {
      "_id": "5fa6da6e1dc3c79146acc1d9",
      "articlenumber": 87010482,
      "category": "GRW",
      "dia": 6,
      "type": "DF",
      "code": "F02",
      "approved": "true",
      "name": "PN 06 AGRK 1/4\""
    },
    {
      "_id": "5fa6da6e1dc3c79146acc1da",
      "articlenumber": 87010481,
      "category": "GRW",
      "dia": 6,
      "type": "DF",
      "code": "F01",
      "approved": "true",
      "name": "PN 06 AGRK 1/8\""
    },
    {
      "_id": "5fa6da6e1dc3c79146acc1e6",
      "articlenumber": 87010139,
      "category": "GRW",
      "dia": 6,
      "type": "DF",
      "code": "G00",
      "approved": "true",
      "name": "PN 06 AGS M14x1.5 (6S)"
    },
    {
      "_id": "5fa6da6e1dc3c79146acc1e4",
      "articlenumber": 87010140,
      "category": "GRW",
      "dia": 6,
      "type": "DF",
      "code": "G01",
      "approved": "true",
      "name": "PN 06 AGS M16x1.5 (8S)"
    },
    {
      "_id": "5fa6da6e1dc3c79146acc1e7",
      "articlenumber": 87010141,
      "category": "GRW",
      "dia": 6,
      "type": "DF",
      "code": "G02",
      "approved": "true",
      "name": "PN 06 AGS M18x1.5 (10S)"
    },
    {
      "_id": "5fa6da6e1dc3c79146acc237",
      "articlenumber": 87011186,
      "category": "GRW",
      "dia": 6,
      "type": "DF",
      "code": "K74",
      "approved": "true",
      "name": "PN 06 DKK-WA M22x1.5"
    },
    {
      "_id": "5fa6da6e1dc3c79146acc2c6",
      "articlenumber": 87010395,
      "category": "GRW",
      "dia": 6,
      "type": "DF",
      "code": "P01",
      "approved": "true",
      "name": "PN 06 DKM M10x1.0"
    },
    {
      "_id": "5fa6da6e1dc3c79146acc2fd",
      "articlenumber": 87010456,
      "category": "GRW",
      "dia": 6,
      "type": "DF",
      "code": "P42",
      "approved": "true",
      "name": "PN 06 DKM M10x1.0 90°"
    },
    {
      "_id": "5fa6da6e1dc3c79146acc2c7",
      "articlenumber": 87010396,
      "category": "GRW",
      "dia": 6,
      "type": "DF",
      "code": "P02",
      "approved": "true",
      "name": "PN 06 DKM M12x1.5"
    },
    {
      "_id": "5fa6da6e1dc3c79146acc2db",
      "articlenumber": 87010426,
      "category": "GRW",
      "dia": 6,
      "type": "DF",
      "code": "P22",
      "approved": "true",
      "name": "PN 06 DKM M12x1.5 45°"
    },
    {
      "_id": "5fa6da6e1dc3c79146acc303",
      "articlenumber": 87010457,
      "category": "GRW",
      "dia": 6,
      "type": "DF",
      "code": "P43",
      "approved": "true",
      "name": "PN 06 DKM M12x1.5 90°"
    },
    {
      "_id": "5fa6da6e1dc3c79146acc2c8",
      "articlenumber": 87010397,
      "category": "GRW",
      "dia": 6,
      "type": "DF",
      "code": "P03",
      "approved": "true",
      "name": "PN 06 DKM M14x1.5"
    },
    {
      "_id": "5fa6da6e1dc3c79146acc2dc",
      "articlenumber": 87010427,
      "category": "GRW",
      "dia": 6,
      "type": "DF",
      "code": "P23",
      "approved": "true",
      "name": "PN 06 DKM M14x1.5 45°"
    },
    {
      "_id": "5fa6da6e1dc3c79146acc306",
      "articlenumber": 87010458,
      "category": "GRW",
      "dia": 6,
      "type": "DF",
      "code": "P44",
      "approved": "true",
      "name": "PN 06 DKM M14x1.5 90°"
    },
    {
      "_id": "5fa6da6e1dc3c79146acc2c9",
      "articlenumber": 87010398,
      "category": "GRW",
      "dia": 6,
      "type": "DF",
      "code": "P04",
      "approved": "true",
      "name": "PN 06 DKM M16x1.5"
    },
    {
      "_id": "5fa6da6e1dc3c79146acc2de",
      "articlenumber": 87010428,
      "category": "GRW",
      "dia": 6,
      "type": "DF",
      "code": "P24",
      "approved": "true",
      "name": "PN 06 DKM M16x1.5 45°"
    },
    {
      "_id": "5fa6da6e1dc3c79146acc2fb",
      "articlenumber": 87010459,
      "category": "GRW",
      "dia": 6,
      "type": "DF",
      "code": "P45",
      "approved": "true",
      "name": "PN 06 DKM M16x1.5 90°"
    },
    {
      "_id": "5fa6da6e1dc3c79146acc2ca",
      "articlenumber": 87010399,
      "category": "GRW",
      "dia": 6,
      "type": "DF",
      "code": "P05",
      "approved": "true",
      "name": "PN 06 DKM M18x1.5"
    },
    {
      "_id": "5fa6da6e1dc3c79146acc2dd",
      "articlenumber": 87010429,
      "category": "GRW",
      "dia": 6,
      "type": "DF",
      "code": "P25",
      "approved": "true",
      "name": "PN 06 DKM M18x1.5 45°"
    },
    {
      "_id": "5fa6da6e1dc3c79146acc308",
      "articlenumber": 87010460,
      "category": "GRW",
      "dia": 6,
      "type": "DF",
      "code": "P46",
      "approved": "true",
      "name": "PN 06 DKM M18x1.5 90°"
    },
    {
      "_id": "5fa6da6e1dc3c79146acc1f8",
      "articlenumber": 87010037,
      "category": "GRW",
      "dia": 6,
      "type": "DF",
      "code": "K02",
      "approved": "true",
      "name": "PN 06 DKOL M12x1.5 (6L)"
    },
    {
      "_id": "5fa6da6e1dc3c79146acc21a",
      "articlenumber": 87010074,
      "category": "GRW",
      "dia": 6,
      "type": "DF",
      "code": "K29",
      "approved": "true",
      "name": "PN 06 DKOL M12x1.5 45° (6L)"
    },
    {
      "_id": "5fa6da6e1dc3c79146acc22a",
      "articlenumber": 87010106,
      "category": "GRW",
      "dia": 6,
      "type": "DF",
      "code": "K51",
      "approved": "true",
      "name": "PN 06 DKOL M12x1.5 90° (6L)"
    },
    {
      "_id": "5fa6da6e1dc3c79146acc1f9",
      "articlenumber": 87010038,
      "category": "GRW",
      "dia": 6,
      "type": "DF",
      "code": "K03",
      "approved": "true",
      "name": "PN 06 DKOL M14x1.5 (8L)"
    },
    {
      "_id": "5fa6da6e1dc3c79146acc227",
      "articlenumber": 87010075,
      "category": "GRW",
      "dia": 6,
      "type": "DF",
      "code": "K30",
      "approved": "true",
      "name": "PN 06 DKOL M14x1.5 45° (8L)"
    },
    {
      "_id": "5fa6da6e1dc3c79146acc225",
      "articlenumber": 87010107,
      "category": "GRW",
      "dia": 6,
      "type": "DF",
      "code": "K52",
      "approved": "true",
      "name": "PN 06 DKOL M14x1.5 90° (8L)"
    },
    {
      "_id": "5fa6da6e1dc3c79146acc1f7",
      "articlenumber": 87010039,
      "category": "GRW",
      "dia": 6,
      "type": "DF",
      "code": "K04",
      "approved": "true",
      "name": "PN 06 DKOL M16x1.5 (10L)"
    },
    {
      "_id": "5fa6da6e1dc3c79146acc21f",
      "articlenumber": 87010076,
      "category": "GRW",
      "dia": 6,
      "type": "DF",
      "code": "K31",
      "approved": "true",
      "name": "PN 06 DKOL M16x1.5 45° (10L)"
    },
    {
      "_id": "5fa6da6e1dc3c79146acc23a",
      "articlenumber": 87010108,
      "category": "GRW",
      "dia": 6,
      "type": "DF",
      "code": "K53",
      "approved": "true",
      "name": "PN 06 DKOL M16x1.5 90° (10L)"
    },
    {
      "_id": "5fa6da6e1dc3c79146acc1fb",
      "articlenumber": 87010040,
      "category": "GRW",
      "dia": 6,
      "type": "DF",
      "code": "K05",
      "approved": "true",
      "name": "PN 06 DKOL M18x1.5 (12L)"
    },
    {
      "_id": "5fa6da6e1dc3c79146acc218",
      "articlenumber": 87010077,
      "category": "GRW",
      "dia": 6,
      "type": "DF",
      "code": "K32",
      "approved": "true",
      "name": "PN 06 DKOL M18x1.5 45° (12L)"
    },
    {
      "_id": "5fa6da6e1dc3c79146acc229",
      "articlenumber": 87010109,
      "category": "GRW",
      "dia": 6,
      "type": "DF",
      "code": "K54",
      "approved": "true",
      "name": "PN 06 DKOL M18x1.5 90° (12L)"
    },
    {
      "_id": "5fa6da6e1dc3c79146acc253",
      "articlenumber": 87010164,
      "category": "GRW",
      "dia": 6,
      "type": "DF",
      "code": "N00",
      "approved": "true",
      "name": "PN 06 DKOS M14x1.5 (6S)"
    },
    {
      "_id": "5fa6da6e1dc3c79146acc268",
      "articlenumber": 87010192,
      "category": "GRW",
      "dia": 6,
      "type": "DF",
      "code": "N18",
      "approved": "true",
      "name": "PN 06 DKOS M14x1.5 45° (6S)"
    },
    {
      "_id": "5fa6da6e1dc3c79146acc277",
      "articlenumber": 87010220,
      "category": "GRW",
      "dia": 6,
      "type": "DF",
      "code": "N36",
      "approved": "true",
      "name": "PN 06 DKOS M14x1.5 90° (6S)"
    },
    {
      "_id": "5fa6da6e1dc3c79146acc259",
      "articlenumber": 87010167,
      "category": "GRW",
      "dia": 6,
      "type": "DF",
      "code": "N03",
      "approved": "true",
      "name": "PN 06 DKOS M16x1.5 (8S)"
    },
    {
      "_id": "5fa6da6e1dc3c79146acc265",
      "articlenumber": 87010193,
      "category": "GRW",
      "dia": 6,
      "type": "DF",
      "code": "N19",
      "approved": "true",
      "name": "PN 06 DKOS M16x1.5 45° (8S)"
    },
    {
      "_id": "5fa6da6e1dc3c79146acc27a",
      "articlenumber": 87010221,
      "category": "GRW",
      "dia": 6,
      "type": "DF",
      "code": "N37",
      "approved": "true",
      "name": "PN 06 DKOS M16x1.5 90° (8S)"
    },
    {
      "_id": "5fa6da6e1dc3c79146acc256",
      "articlenumber": 87010168,
      "category": "GRW",
      "dia": 6,
      "type": "DF",
      "code": "N04",
      "approved": "true",
      "name": "PN 06 DKOS M18x1.5 (10S)"
    },
    {
      "_id": "5fa6da6e1dc3c79146acc266",
      "articlenumber": 87010194,
      "category": "GRW",
      "dia": 6,
      "type": "DF",
      "code": "N20",
      "approved": "true",
      "name": "PN 06 DKOS M18x1.5 45° (10S)"
    },
    {
      "_id": "5fa6da6e1dc3c79146acc278",
      "articlenumber": 87010222,
      "category": "GRW",
      "dia": 6,
      "type": "DF",
      "code": "N38",
      "approved": "true",
      "name": "PN 06 DKOS M18x1.5 90° (10S)"
    },
    {
      "_id": "5fa6da6e1dc3c79146acc257",
      "articlenumber": 87010169,
      "category": "GRW",
      "dia": 6,
      "type": "DF",
      "code": "N05",
      "approved": "true",
      "name": "PN 06 DKOS M20x1.5 (12S)"
    },
    {
      "_id": "5fa6da6e1dc3c79146acc267",
      "articlenumber": 87010195,
      "category": "GRW",
      "dia": 6,
      "type": "DF",
      "code": "N21",
      "approved": "true",
      "name": "PN 06 DKOS M20x1.5 45° (12S)"
    },
    {
      "_id": "5fa6da6e1dc3c79146acc279",
      "articlenumber": 87010223,
      "category": "GRW",
      "dia": 6,
      "type": "DF",
      "code": "N39",
      "approved": "true",
      "name": "PN 06 DKOS M20x1.5 90° (12S)"
    },
    {
      "_id": "5fa6da6e1dc3c79146acc28c",
      "articlenumber": 87010543,
      "category": "GRW",
      "dia": 6,
      "type": "DF",
      "code": "O05",
      "approved": "true",
      "name": "PN 06 DKR 1/2\""
    },
    {
      "_id": "5fa6da6e1dc3c79146acc28b",
      "articlenumber": 87010541,
      "category": "GRW",
      "dia": 6,
      "type": "DF",
      "code": "O03",
      "approved": "true",
      "name": "PN 06 DKR 1/4\""
    },
    {
      "_id": "5fa6da6e1dc3c79146acc29d",
      "articlenumber": 87010573,
      "category": "GRW",
      "dia": 6,
      "type": "DF",
      "code": "O25",
      "approved": "true",
      "name": "PN 06 DKR 1/4\" 45°"
    },
    {
      "_id": "5fa6da6e1dc3c79146acc2b1",
      "articlenumber": 87010602,
      "category": "GRW",
      "dia": 6,
      "type": "DF",
      "code": "O44",
      "approved": "true",
      "name": "PN 06 DKR 1/4\" 90°"
    },
    {
      "_id": "5fa6da6e1dc3c79146acc2f7",
      "articlenumber": 87010630,
      "category": "GRW",
      "dia": 6,
      "type": "DF",
      "code": "R00",
      "approved": "true",
      "name": "PN 06 DKR 1/4\" K"
    },
    {
      "_id": "5fa6da6e1dc3c79146acc289",
      "articlenumber": 87010540,
      "category": "GRW",
      "dia": 6,
      "type": "DF",
      "code": "O02",
      "approved": "true",
      "name": "PN 06 DKR 1/8\""
    },
    {
      "_id": "5fa6da6e1dc3c79146acc2a0",
      "articlenumber": 87010572,
      "category": "GRW",
      "dia": 6,
      "type": "DF",
      "code": "O24",
      "approved": "true",
      "name": "PN 06 DKR 1/8\" 45°"
    },
    {
      "_id": "5fa6da6e1dc3c79146acc2b0",
      "articlenumber": 87010601,
      "category": "GRW",
      "dia": 6,
      "type": "DF",
      "code": "O43",
      "approved": "true",
      "name": "PN 06 DKR 1/8\" 90°"
    },
    {
      "_id": "5fa6da6e1dc3c79146acc28a",
      "articlenumber": 87010542,
      "category": "GRW",
      "dia": 6,
      "type": "DF",
      "code": "O04",
      "approved": "true",
      "name": "PN 06 DKR 3/8\""
    },
    {
      "_id": "5fa6da6e1dc3c79146acc29f",
      "articlenumber": 87010574,
      "category": "GRW",
      "dia": 6,
      "type": "DF",
      "code": "O26",
      "approved": "true",
      "name": "PN 06 DKR 3/8\" 45°"
    },
    {
      "_id": "5fa6da6e1dc3c79146acc2ae",
      "articlenumber": 87010603,
      "category": "GRW",
      "dia": 6,
      "type": "DF",
      "code": "O45",
      "approved": "true",
      "name": "PN 06 DKR 3/8\" 90°"
    },
    {
      "_id": "5fa6da6e1dc3c79146acc309",
      "articlenumber": 87011082,
      "category": "GRW",
      "dia": 6,
      "type": "DF",
      "code": "S02",
      "approved": "true",
      "name": "PN 06 RAM M10x1.5"
    },
    {
      "_id": "5fa6da6e1dc3c79146acc30f",
      "articlenumber": 87011083,
      "category": "GRW",
      "dia": 6,
      "type": "DF",
      "code": "S03",
      "approved": "true",
      "name": "PN 06 RAM M12x1.5"
    },
    {
      "_id": "5fa6da6e1dc3c79146acc311",
      "articlenumber": 87011084,
      "category": "GRW",
      "dia": 6,
      "type": "DF",
      "code": "S04",
      "approved": "true",
      "name": "PN 06 RAM M14x1.5"
    },
    {
      "_id": "5fa6da6e1dc3c79146acc2fe",
      "articlenumber": 87011085,
      "category": "GRW",
      "dia": 6,
      "type": "DF",
      "code": "S05",
      "approved": "true",
      "name": "PN 06 RAM M16x1.5"
    },
    {
      "_id": "5fa6da6e1dc3c79146acc300",
      "articlenumber": 87011086,
      "category": "GRW",
      "dia": 6,
      "type": "DF",
      "code": "S06",
      "approved": "true",
      "name": "PN 06 RAM M18x1.5"
    },
    {
      "_id": "5fa6da6e1dc3c79146acc31f",
      "articlenumber": 87011114,
      "category": "GRW",
      "dia": 6,
      "type": "DF",
      "code": "S25",
      "approved": "true",
      "name": "PN 06 RAR 1/4\""
    },
    {
      "_id": "5fa6da6e1dc3c79146acc320",
      "articlenumber": 87011113,
      "category": "GRW",
      "dia": 6,
      "type": "DF",
      "code": "S24",
      "approved": "true",
      "name": "PN 06 RAR 1/8\""
    },
    {
      "_id": "5fa6da6e1dc3c79146acc324",
      "articlenumber": 87011115,
      "category": "GRW",
      "dia": 6,
      "type": "DF",
      "code": "S26",
      "approved": "true",
      "name": "PN 06 RAR 3/8\""
    },
    {
      "_id": "5fa6da6e1dc3c79146acc330",
      "articlenumber": 87011170,
      "category": "GRW",
      "dia": 6,
      "type": "DF",
      "code": "Y00",
      "approved": "true",
      "name": "PN 06 VB"
    },
    {
      "_id": "5fa6da6e1dc3c79146acc196",
      "articlenumber": 87010002,
      "category": "GRW",
      "dia": 6,
      "type": "DF",
      "code": "B02",
      "approved": "true",
      "name": "PN 06 AGL M12x1.5 (6L)"
    },
    {
      "_id": "5fa6da6e1dc3c79146acc197",
      "articlenumber": 87010003,
      "category": "GRW",
      "dia": 6,
      "type": "DF",
      "code": "B03",
      "approved": "true",
      "name": "PN 06 AGL M14x1.5 (8L)"
    },
    {
      "_id": "5fa6da6e1dc3c79146acc195",
      "articlenumber": 87010004,
      "category": "GRW",
      "dia": 6,
      "type": "DF",
      "code": "B04",
      "approved": "true",
      "name": "PN 06 AGL M16x1.5 (10L)"
    },
    {
      "_id": "5fa6da6e1dc3c79146acc198",
      "articlenumber": 87010005,
      "category": "GRW",
      "dia": 6,
      "type": "DF",
      "code": "B05",
      "approved": "true",
      "name": "PN 06 AGL M18x1.5 (12L)"
    },
    {
      "_id": "5fa6da6e1dc3c79146acc240",
      "articlenumber": 87010368,
      "category": "GRW",
      "dia": 6,
      "type": "DF",
      "code": "L01",
      "approved": "true",
      "name": "PN 06 AGM M10x1.0"
    },
    {
      "_id": "5fa6da6e1dc3c79146acc23e",
      "articlenumber": 87010369,
      "category": "GRW",
      "dia": 6,
      "type": "DF",
      "code": "L02",
      "approved": "true",
      "name": "PN 06 AGM M12x1.5"
    },
    {
      "_id": "5fa6da6e1dc3c79146acc23f",
      "articlenumber": 87010370,
      "category": "GRW",
      "dia": 6,
      "type": "DF",
      "code": "L03",
      "approved": "true",
      "name": "PN 06 AGM M14x1.5"
    },
    {
      "_id": "5fa6da6e1dc3c79146acc242",
      "articlenumber": 87010371,
      "category": "GRW",
      "dia": 6,
      "type": "DF",
      "code": "L04",
      "approved": "true",
      "name": "PN 06 AGM M16x1.5"
    },
    {
      "_id": "5fa6da6e1dc3c79146acc1af",
      "articlenumber": 87010872,
      "category": "GRW",
      "dia": 6,
      "type": "DF",
      "code": "C02",
      "approved": "true",
      "name": "PN 06 AGN 1/4\""
    },
    {
      "_id": "5fa6da6e1dc3c79146acc1ae",
      "articlenumber": 87010871,
      "category": "GRW",
      "dia": 6,
      "type": "DF",
      "code": "C01",
      "approved": "true",
      "name": "PN 06 AGN 1/8\""
    },
    {
      "_id": "5fa6da6e1dc3c79146acc1b1",
      "articlenumber": 87010873,
      "category": "GRW",
      "dia": 6,
      "type": "DF",
      "code": "C03",
      "approved": "true",
      "name": "PN 06 AGN 3/8\""
    },
    {
      "_id": "5fa6da6e1dc3c79146acc1c3",
      "articlenumber": 87010507,
      "category": "GRW",
      "dia": 6,
      "type": "DF",
      "code": "E05",
      "approved": "true",
      "name": "PN 06 AGR 1/2\""
    },
    {
      "_id": "5fa6da6e1dc3c79146acc1c1",
      "articlenumber": 87010505,
      "category": "GRW",
      "dia": 6,
      "type": "DF",
      "code": "E03",
      "approved": "true",
      "name": "PN 06 AGR 1/4\""
    },
    {
      "_id": "5fa6da6e1dc3c79146acc1c2",
      "articlenumber": 87010504,
      "category": "GRW",
      "dia": 6,
      "type": "DF",
      "code": "E02",
      "approved": "true",
      "name": "PN 06 AGR 1/8\""
    },
    {
      "_id": "5fa6da6e1dc3c79146acc1c4",
      "articlenumber": 87010506,
      "category": "GRW",
      "dia": 6,
      "type": "DF",
      "code": "E04",
      "approved": "true",
      "name": "PN 06 AGR 3/8\""
    },
    {
      "_id": "5fa6da6e1dc3c79146acc1d9",
      "articlenumber": 87010482,
      "category": "GRW",
      "dia": 6,
      "type": "DF",
      "code": "F02",
      "approved": "true",
      "name": "PN 06 AGRK 1/4\""
    },
    {
      "_id": "5fa6da6e1dc3c79146acc1da",
      "articlenumber": 87010481,
      "category": "GRW",
      "dia": 6,
      "type": "DF",
      "code": "F01",
      "approved": "true",
      "name": "PN 06 AGRK 1/8\""
    },
    {
      "_id": "5fa6da6e1dc3c79146acc1e6",
      "articlenumber": 87010139,
      "category": "GRW",
      "dia": 6,
      "type": "DF",
      "code": "G00",
      "approved": "true",
      "name": "PN 06 AGS M14x1.5 (6S)"
    },
    {
      "_id": "5fa6da6e1dc3c79146acc1e4",
      "articlenumber": 87010140,
      "category": "GRW",
      "dia": 6,
      "type": "DF",
      "code": "G01",
      "approved": "true",
      "name": "PN 06 AGS M16x1.5 (8S)"
    },
    {
      "_id": "5fa6da6e1dc3c79146acc1e7",
      "articlenumber": 87010141,
      "category": "GRW",
      "dia": 6,
      "type": "DF",
      "code": "G02",
      "approved": "true",
      "name": "PN 06 AGS M18x1.5 (10S)"
    },
    {
      "_id": "5fa6da6e1dc3c79146acc237",
      "articlenumber": 87011186,
      "category": "GRW",
      "dia": 6,
      "type": "DF",
      "code": "K74",
      "approved": "true",
      "name": "PN 06 DKK-WA M22x1.5"
    },
    {
      "_id": "5fa6da6e1dc3c79146acc2c6",
      "articlenumber": 87010395,
      "category": "GRW",
      "dia": 6,
      "type": "DF",
      "code": "P01",
      "approved": "true",
      "name": "PN 06 DKM M10x1.0"
    },
    {
      "_id": "5fa6da6e1dc3c79146acc2fd",
      "articlenumber": 87010456,
      "category": "GRW",
      "dia": 6,
      "type": "DF",
      "code": "P42",
      "approved": "true",
      "name": "PN 06 DKM M10x1.0 90°"
    },
    {
      "_id": "5fa6da6e1dc3c79146acc2c7",
      "articlenumber": 87010396,
      "category": "GRW",
      "dia": 6,
      "type": "DF",
      "code": "P02",
      "approved": "true",
      "name": "PN 06 DKM M12x1.5"
    },
    {
      "_id": "5fa6da6e1dc3c79146acc2db",
      "articlenumber": 87010426,
      "category": "GRW",
      "dia": 6,
      "type": "DF",
      "code": "P22",
      "approved": "true",
      "name": "PN 06 DKM M12x1.5 45°"
    },
    {
      "_id": "5fa6da6e1dc3c79146acc303",
      "articlenumber": 87010457,
      "category": "GRW",
      "dia": 6,
      "type": "DF",
      "code": "P43",
      "approved": "true",
      "name": "PN 06 DKM M12x1.5 90°"
    },
    {
      "_id": "5fa6da6e1dc3c79146acc2c8",
      "articlenumber": 87010397,
      "category": "GRW",
      "dia": 6,
      "type": "DF",
      "code": "P03",
      "approved": "true",
      "name": "PN 06 DKM M14x1.5"
    },
    {
      "_id": "5fa6da6e1dc3c79146acc2dc",
      "articlenumber": 87010427,
      "category": "GRW",
      "dia": 6,
      "type": "DF",
      "code": "P23",
      "approved": "true",
      "name": "PN 06 DKM M14x1.5 45°"
    },
    {
      "_id": "5fa6da6e1dc3c79146acc306",
      "articlenumber": 87010458,
      "category": "GRW",
      "dia": 6,
      "type": "DF",
      "code": "P44",
      "approved": "true",
      "name": "PN 06 DKM M14x1.5 90°"
    },
    {
      "_id": "5fa6da6e1dc3c79146acc2c9",
      "articlenumber": 87010398,
      "category": "GRW",
      "dia": 6,
      "type": "DF",
      "code": "P04",
      "approved": "true",
      "name": "PN 06 DKM M16x1.5"
    },
    {
      "_id": "5fa6da6e1dc3c79146acc2de",
      "articlenumber": 87010428,
      "category": "GRW",
      "dia": 6,
      "type": "DF",
      "code": "P24",
      "approved": "true",
      "name": "PN 06 DKM M16x1.5 45°"
    },
    {
      "_id": "5fa6da6e1dc3c79146acc2fb",
      "articlenumber": 87010459,
      "category": "GRW",
      "dia": 6,
      "type": "DF",
      "code": "P45",
      "approved": "true",
      "name": "PN 06 DKM M16x1.5 90°"
    },
    {
      "_id": "5fa6da6e1dc3c79146acc2ca",
      "articlenumber": 87010399,
      "category": "GRW",
      "dia": 6,
      "type": "DF",
      "code": "P05",
      "approved": "true",
      "name": "PN 06 DKM M18x1.5"
    },
    {
      "_id": "5fa6da6e1dc3c79146acc2dd",
      "articlenumber": 87010429,
      "category": "GRW",
      "dia": 6,
      "type": "DF",
      "code": "P25",
      "approved": "true",
      "name": "PN 06 DKM M18x1.5 45°"
    },
    {
      "_id": "5fa6da6e1dc3c79146acc308",
      "articlenumber": 87010460,
      "category": "GRW",
      "dia": 6,
      "type": "DF",
      "code": "P46",
      "approved": "true",
      "name": "PN 06 DKM M18x1.5 90°"
    },
    {
      "_id": "5fa6da6e1dc3c79146acc1f8",
      "articlenumber": 87010037,
      "category": "GRW",
      "dia": 6,
      "type": "DF",
      "code": "K02",
      "approved": "true",
      "name": "PN 06 DKOL M12x1.5 (6L)"
    },
    {
      "_id": "5fa6da6e1dc3c79146acc21a",
      "articlenumber": 87010074,
      "category": "GRW",
      "dia": 6,
      "type": "DF",
      "code": "K29",
      "approved": "true",
      "name": "PN 06 DKOL M12x1.5 45° (6L)"
    },
    {
      "_id": "5fa6da6e1dc3c79146acc22a",
      "articlenumber": 87010106,
      "category": "GRW",
      "dia": 6,
      "type": "DF",
      "code": "K51",
      "approved": "true",
      "name": "PN 06 DKOL M12x1.5 90° (6L)"
    },
    {
      "_id": "5fa6da6e1dc3c79146acc1f9",
      "articlenumber": 87010038,
      "category": "GRW",
      "dia": 6,
      "type": "DF",
      "code": "K03",
      "approved": "true",
      "name": "PN 06 DKOL M14x1.5 (8L)"
    },
    {
      "_id": "5fa6da6e1dc3c79146acc227",
      "articlenumber": 87010075,
      "category": "GRW",
      "dia": 6,
      "type": "DF",
      "code": "K30",
      "approved": "true",
      "name": "PN 06 DKOL M14x1.5 45° (8L)"
    },
    {
      "_id": "5fa6da6e1dc3c79146acc225",
      "articlenumber": 87010107,
      "category": "GRW",
      "dia": 6,
      "type": "DF",
      "code": "K52",
      "approved": "true",
      "name": "PN 06 DKOL M14x1.5 90° (8L)"
    },
    {
      "_id": "5fa6da6e1dc3c79146acc1f7",
      "articlenumber": 87010039,
      "category": "GRW",
      "dia": 6,
      "type": "DF",
      "code": "K04",
      "approved": "true",
      "name": "PN 06 DKOL M16x1.5 (10L)"
    },
    {
      "_id": "5fa6da6e1dc3c79146acc21f",
      "articlenumber": 87010076,
      "category": "GRW",
      "dia": 6,
      "type": "DF",
      "code": "K31",
      "approved": "true",
      "name": "PN 06 DKOL M16x1.5 45° (10L)"
    },
    {
      "_id": "5fa6da6e1dc3c79146acc23a",
      "articlenumber": 87010108,
      "category": "GRW",
      "dia": 6,
      "type": "DF",
      "code": "K53",
      "approved": "true",
      "name": "PN 06 DKOL M16x1.5 90° (10L)"
    },
    {
      "_id": "5fa6da6e1dc3c79146acc1fb",
      "articlenumber": 87010040,
      "category": "GRW",
      "dia": 6,
      "type": "DF",
      "code": "K05",
      "approved": "true",
      "name": "PN 06 DKOL M18x1.5 (12L)"
    },
    {
      "_id": "5fa6da6e1dc3c79146acc218",
      "articlenumber": 87010077,
      "category": "GRW",
      "dia": 6,
      "type": "DF",
      "code": "K32",
      "approved": "true",
      "name": "PN 06 DKOL M18x1.5 45° (12L)"
    },
    {
      "_id": "5fa6da6e1dc3c79146acc229",
      "articlenumber": 87010109,
      "category": "GRW",
      "dia": 6,
      "type": "DF",
      "code": "K54",
      "approved": "true",
      "name": "PN 06 DKOL M18x1.5 90° (12L)"
    },
    {
      "_id": "5fa6da6e1dc3c79146acc253",
      "articlenumber": 87010164,
      "category": "GRW",
      "dia": 6,
      "type": "DF",
      "code": "N00",
      "approved": "true",
      "name": "PN 06 DKOS M14x1.5 (6S)"
    },
    {
      "_id": "5fa6da6e1dc3c79146acc268",
      "articlenumber": 87010192,
      "category": "GRW",
      "dia": 6,
      "type": "DF",
      "code": "N18",
      "approved": "true",
      "name": "PN 06 DKOS M14x1.5 45° (6S)"
    },
    {
      "_id": "5fa6da6e1dc3c79146acc277",
      "articlenumber": 87010220,
      "category": "GRW",
      "dia": 6,
      "type": "DF",
      "code": "N36",
      "approved": "true",
      "name": "PN 06 DKOS M14x1.5 90° (6S)"
    },
    {
      "_id": "5fa6da6e1dc3c79146acc259",
      "articlenumber": 87010167,
      "category": "GRW",
      "dia": 6,
      "type": "DF",
      "code": "N03",
      "approved": "true",
      "name": "PN 06 DKOS M16x1.5 (8S)"
    },
    {
      "_id": "5fa6da6e1dc3c79146acc265",
      "articlenumber": 87010193,
      "category": "GRW",
      "dia": 6,
      "type": "DF",
      "code": "N19",
      "approved": "true",
      "name": "PN 06 DKOS M16x1.5 45° (8S)"
    },
    {
      "_id": "5fa6da6e1dc3c79146acc27a",
      "articlenumber": 87010221,
      "category": "GRW",
      "dia": 6,
      "type": "DF",
      "code": "N37",
      "approved": "true",
      "name": "PN 06 DKOS M16x1.5 90° (8S)"
    },
    {
      "_id": "5fa6da6e1dc3c79146acc256",
      "articlenumber": 87010168,
      "category": "GRW",
      "dia": 6,
      "type": "DF",
      "code": "N04",
      "approved": "true",
      "name": "PN 06 DKOS M18x1.5 (10S)"
    },
    {
      "_id": "5fa6da6e1dc3c79146acc266",
      "articlenumber": 87010194,
      "category": "GRW",
      "dia": 6,
      "type": "DF",
      "code": "N20",
      "approved": "true",
      "name": "PN 06 DKOS M18x1.5 45° (10S)"
    },
    {
      "_id": "5fa6da6e1dc3c79146acc278",
      "articlenumber": 87010222,
      "category": "GRW",
      "dia": 6,
      "type": "DF",
      "code": "N38",
      "approved": "true",
      "name": "PN 06 DKOS M18x1.5 90° (10S)"
    },
    {
      "_id": "5fa6da6e1dc3c79146acc257",
      "articlenumber": 87010169,
      "category": "GRW",
      "dia": 6,
      "type": "DF",
      "code": "N05",
      "approved": "true",
      "name": "PN 06 DKOS M20x1.5 (12S)"
    },
    {
      "_id": "5fa6da6e1dc3c79146acc267",
      "articlenumber": 87010195,
      "category": "GRW",
      "dia": 6,
      "type": "DF",
      "code": "N21",
      "approved": "true",
      "name": "PN 06 DKOS M20x1.5 45° (12S)"
    },
    {
      "_id": "5fa6da6e1dc3c79146acc279",
      "articlenumber": 87010223,
      "category": "GRW",
      "dia": 6,
      "type": "DF",
      "code": "N39",
      "approved": "true",
      "name": "PN 06 DKOS M20x1.5 90° (12S)"
    },
    {
      "_id": "5fa6da6e1dc3c79146acc28c",
      "articlenumber": 87010543,
      "category": "GRW",
      "dia": 6,
      "type": "DF",
      "code": "O05",
      "approved": "true",
      "name": "PN 06 DKR 1/2\""
    },
    {
      "_id": "5fa6da6e1dc3c79146acc28b",
      "articlenumber": 87010541,
      "category": "GRW",
      "dia": 6,
      "type": "DF",
      "code": "O03",
      "approved": "true",
      "name": "PN 06 DKR 1/4\""
    },
    {
      "_id": "5fa6da6e1dc3c79146acc29d",
      "articlenumber": 87010573,
      "category": "GRW",
      "dia": 6,
      "type": "DF",
      "code": "O25",
      "approved": "true",
      "name": "PN 06 DKR 1/4\" 45°"
    },
    {
      "_id": "5fa6da6e1dc3c79146acc2b1",
      "articlenumber": 87010602,
      "category": "GRW",
      "dia": 6,
      "type": "DF",
      "code": "O44",
      "approved": "true",
      "name": "PN 06 DKR 1/4\" 90°"
    },
    {
      "_id": "5fa6da6e1dc3c79146acc2f7",
      "articlenumber": 87010630,
      "category": "GRW",
      "dia": 6,
      "type": "DF",
      "code": "R00",
      "approved": "true",
      "name": "PN 06 DKR 1/4\" K"
    },
    {
      "_id": "5fa6da6e1dc3c79146acc289",
      "articlenumber": 87010540,
      "category": "GRW",
      "dia": 6,
      "type": "DF",
      "code": "O02",
      "approved": "true",
      "name": "PN 06 DKR 1/8\""
    },
    {
      "_id": "5fa6da6e1dc3c79146acc2a0",
      "articlenumber": 87010572,
      "category": "GRW",
      "dia": 6,
      "type": "DF",
      "code": "O24",
      "approved": "true",
      "name": "PN 06 DKR 1/8\" 45°"
    },
    {
      "_id": "5fa6da6e1dc3c79146acc2b0",
      "articlenumber": 87010601,
      "category": "GRW",
      "dia": 6,
      "type": "DF",
      "code": "O43",
      "approved": "true",
      "name": "PN 06 DKR 1/8\" 90°"
    },
    {
      "_id": "5fa6da6e1dc3c79146acc28a",
      "articlenumber": 87010542,
      "category": "GRW",
      "dia": 6,
      "type": "DF",
      "code": "O04",
      "approved": "true",
      "name": "PN 06 DKR 3/8\""
    },
    {
      "_id": "5fa6da6e1dc3c79146acc29f",
      "articlenumber": 87010574,
      "category": "GRW",
      "dia": 6,
      "type": "DF",
      "code": "O26",
      "approved": "true",
      "name": "PN 06 DKR 3/8\" 45°"
    },
    {
      "_id": "5fa6da6e1dc3c79146acc2ae",
      "articlenumber": 87010603,
      "category": "GRW",
      "dia": 6,
      "type": "DF",
      "code": "O45",
      "approved": "true",
      "name": "PN 06 DKR 3/8\" 90°"
    },
    {
      "_id": "5fa6da6e1dc3c79146acc309",
      "articlenumber": 87011082,
      "category": "GRW",
      "dia": 6,
      "type": "DF",
      "code": "S02",
      "approved": "true",
      "name": "PN 06 RAM M10x1.5"
    },
    {
      "_id": "5fa6da6e1dc3c79146acc30f",
      "articlenumber": 87011083,
      "category": "GRW",
      "dia": 6,
      "type": "DF",
      "code": "S03",
      "approved": "true",
      "name": "PN 06 RAM M12x1.5"
    },
    {
      "_id": "5fa6da6e1dc3c79146acc311",
      "articlenumber": 87011084,
      "category": "GRW",
      "dia": 6,
      "type": "DF",
      "code": "S04",
      "approved": "true",
      "name": "PN 06 RAM M14x1.5"
    },
    {
      "_id": "5fa6da6e1dc3c79146acc2fe",
      "articlenumber": 87011085,
      "category": "GRW",
      "dia": 6,
      "type": "DF",
      "code": "S05",
      "approved": "true",
      "name": "PN 06 RAM M16x1.5"
    },
    {
      "_id": "5fa6da6e1dc3c79146acc300",
      "articlenumber": 87011086,
      "category": "GRW",
      "dia": 6,
      "type": "DF",
      "code": "S06",
      "approved": "true",
      "name": "PN 06 RAM M18x1.5"
    },
    {
      "_id": "5fa6da6e1dc3c79146acc31f",
      "articlenumber": 87011114,
      "category": "GRW",
      "dia": 6,
      "type": "DF",
      "code": "S25",
      "approved": "true",
      "name": "PN 06 RAR 1/4\""
    },
    {
      "_id": "5fa6da6e1dc3c79146acc320",
      "articlenumber": 87011113,
      "category": "GRW",
      "dia": 6,
      "type": "DF",
      "code": "S24",
      "approved": "true",
      "name": "PN 06 RAR 1/8\""
    },
    {
      "_id": "5fa6da6e1dc3c79146acc324",
      "articlenumber": 87011115,
      "category": "GRW",
      "dia": 6,
      "type": "DF",
      "code": "S26",
      "approved": "true",
      "name": "PN 06 RAR 3/8\""
    },
    {
      "_id": "5fa6da6e1dc3c79146acc330",
      "articlenumber": 87011170,
      "category": "GRW",
      "dia": 6,
      "type": "DF",
      "code": "Y00",
      "approved": "true",
      "name": "PN 06 VB"
    },
    {
      "_id": "5fa6da6e1dc3c79146acbafe",
      "articlenumber": 87010640,
      "category": "GR",
      "dia": 5,
      "type": "DF",
      "code": "A00",
      "approved": "true",
      "name": "PN 05 AGJ 7/16\""
    },
    {
      "_id": "5fa6da6e1dc3c79146acbaf2",
      "articlenumber": 87010000,
      "category": "GR",
      "dia": 5,
      "type": "DF",
      "code": "B00",
      "approved": "true",
      "name": "PN 05 AGL M12x1.5 (6L)"
    },
    {
      "_id": "5fa6da6e1dc3c79146acbaf3",
      "articlenumber": 87010001,
      "category": "GR",
      "dia": 5,
      "type": "DF",
      "code": "B01",
      "approved": "true",
      "name": "PN 05 AGL M14x1.5 (8L)"
    },
    {
      "_id": "5fa6da6e1dc3c79146acbc2e",
      "articlenumber": 87010367,
      "category": "GR",
      "dia": 5,
      "type": "DF",
      "code": "L00",
      "approved": "true",
      "name": "PN 05 AGM M10x1.0"
    },
    {
      "_id": "5fa6da6e1dc3c79146acbb17",
      "articlenumber": 87010870,
      "category": "GR",
      "dia": 5,
      "type": "DF",
      "code": "C00",
      "approved": "true",
      "name": "PN 05 AGN 1/8\""
    },
    {
      "_id": "5fa6da6e1dc3c79146acbb41",
      "articlenumber": 87010503,
      "category": "GR",
      "dia": 5,
      "type": "DF",
      "code": "E01",
      "approved": "true",
      "name": "PN 05 AGR 1/4\""
    },
    {
      "_id": "5fa6da6e1dc3c79146acbb3f",
      "articlenumber": 87010502,
      "category": "GR",
      "dia": 5,
      "type": "DF",
      "code": "E00",
      "approved": "true",
      "name": "PN 05 AGR 1/8\""
    },
    {
      "_id": "5fa6da6e1dc3c79146acbb72",
      "articlenumber": 87010480,
      "category": "GR",
      "dia": 5,
      "type": "DF",
      "code": "F00",
      "approved": "true",
      "name": "PN 05 AGRK 1/8\""
    },
    {
      "_id": "5fa6da6e1dc3c79146acbb91",
      "articlenumber": 87010671,
      "category": "GR",
      "dia": 5,
      "type": "DF",
      "code": "H00",
      "approved": "true",
      "name": "PN 05 DKJ 7/16\""
    },
    {
      "_id": "5fa6da6e1dc3c79146acbba6",
      "articlenumber": 87010701,
      "category": "GR",
      "dia": 5,
      "type": "DF",
      "code": "H20",
      "approved": "true",
      "name": "PN 05 DKJ 7/16\" 45°"
    },
    {
      "_id": "5fa6da6e1dc3c79146acbbb5",
      "articlenumber": 87010727,
      "category": "GR",
      "dia": 5,
      "type": "DF",
      "code": "H36",
      "approved": "true",
      "name": "PN 05 DKJ 7/16\" 90°"
    },
    {
      "_id": "5fa6da6e1dc3c79146acbd12",
      "articlenumber": 87010394,
      "category": "GR",
      "dia": 5,
      "type": "DF",
      "code": "P00",
      "approved": "true",
      "name": "PN 05 DKM M10x1.0"
    },
    {
      "_id": "5fa6da6e1dc3c79146acbd29",
      "articlenumber": 87010425,
      "category": "GR",
      "dia": 5,
      "type": "DF",
      "code": "P21",
      "approved": "true",
      "name": "PN 05 DKM M10x1.0 45°"
    },
    {
      "_id": "5fa6da6e1dc3c79146acbd3b",
      "articlenumber": 87010455,
      "category": "GR",
      "dia": 5,
      "type": "DF",
      "code": "P41",
      "approved": "true",
      "name": "PN 05 DKM M10x1.0 90°"
    },
    {
      "_id": "5fa6da6e1dc3c79146acbbe3",
      "articlenumber": 87010035,
      "category": "GR",
      "dia": 5,
      "type": "DF",
      "code": "K00",
      "approved": "true",
      "name": "PN 05 DKOL M12x1.5 (6L)"
    },
    {
      "_id": "5fa6da6e1dc3c79146acbc00",
      "articlenumber": 87010072,
      "category": "GR",
      "dia": 5,
      "type": "DF",
      "code": "K27",
      "approved": "true",
      "name": "PN 05 DKOL M12x1.5 45° (6L)"
    },
    {
      "_id": "5fa6da6e1dc3c79146acbc18",
      "articlenumber": 87010104,
      "category": "GR",
      "dia": 5,
      "type": "DF",
      "code": "K49",
      "approved": "true",
      "name": "PN 05 DKOL M12x1.5 90° (6L)"
    },
    {
      "_id": "5fa6da6e1dc3c79146acbbe4",
      "articlenumber": 87010036,
      "category": "GR",
      "dia": 5,
      "type": "DF",
      "code": "K01",
      "approved": "true",
      "name": "PN 05 DKOL M14x1.5 (8L)"
    },
    {
      "_id": "5fa6da6e1dc3c79146acbc04",
      "articlenumber": 87010073,
      "category": "GR",
      "dia": 5,
      "type": "DF",
      "code": "K28",
      "approved": "true",
      "name": "PN 05 DKOL M14x1.5 45° (8L)"
    },
    {
      "_id": "5fa6da6e1dc3c79146acbc16",
      "articlenumber": 87010105,
      "category": "GR",
      "dia": 5,
      "type": "DF",
      "code": "K50",
      "approved": "true",
      "name": "PN 05 DKOL M14x1.5 90° (8L)"
    },
    {
      "_id": "5fa6da6e1dc3c79146acbcad",
      "articlenumber": 87010218,
      "category": "GR",
      "dia": 5,
      "type": "DF",
      "code": "N34",
      "approved": "true",
      "name": "PN 05 DKOS M14x1.5 90° (6S)"
    },
    {
      "_id": "5fa6da6e1dc3c79146acbc8f",
      "articlenumber": 87010166,
      "category": "GR",
      "dia": 5,
      "type": "DF",
      "code": "N02",
      "approved": "true",
      "name": "PN 05 DKOS M16x1.5 (8S)"
    },
    {
      "_id": "5fa6da6e1dc3c79146acbcae",
      "articlenumber": 87010219,
      "category": "GR",
      "dia": 5,
      "type": "DF",
      "code": "N35",
      "approved": "true",
      "name": "PN 05 DKOS M16x1.5 90° (8S)"
    },
    {
      "_id": "5fa6da6e1dc3c79146acbcd7",
      "articlenumber": 87010539,
      "category": "GR",
      "dia": 5,
      "type": "DF",
      "code": "O01",
      "approved": "true",
      "name": "PN 05 DKR 1/4\""
    },
    {
      "_id": "5fa6da6e1dc3c79146acbced",
      "articlenumber": 87010571,
      "category": "GR",
      "dia": 5,
      "type": "DF",
      "code": "O23",
      "approved": "true",
      "name": "PN 05 DKR 1/4\" 45°"
    },
    {
      "_id": "5fa6da6e1dc3c79146acbcff",
      "articlenumber": 87010600,
      "category": "GR",
      "dia": 5,
      "type": "DF",
      "code": "O42",
      "approved": "true",
      "name": "PN 05 DKR 1/4\" 90°"
    },
    {
      "_id": "5fa6da6e1dc3c79146acbcd6",
      "articlenumber": 87010538,
      "category": "GR",
      "dia": 5,
      "type": "DF",
      "code": "O00",
      "approved": "true",
      "name": "PN 05 DKR 1/8\""
    },
    {
      "_id": "5fa6da6e1dc3c79146acbceb",
      "articlenumber": 87010570,
      "category": "GR",
      "dia": 5,
      "type": "DF",
      "code": "O22",
      "approved": "true",
      "name": "PN 05 DKR 1/8\" 45°"
    },
    {
      "_id": "5fa6da6e1dc3c79146acbcfd",
      "articlenumber": 87010599,
      "category": "GR",
      "dia": 5,
      "type": "DF",
      "code": "O41",
      "approved": "true",
      "name": "PN 05 DKR 1/8\" 90°"
    },
    {
      "_id": "5fa6da6e1dc3c79146acbd67",
      "articlenumber": 87011080,
      "category": "GR",
      "dia": 5,
      "type": "DF",
      "code": "S00",
      "approved": "true",
      "name": "PN 05 RAM M10x1.5"
    },
    {
      "_id": "5fa6da6e1dc3c79146acbd68",
      "articlenumber": 87011081,
      "category": "GR",
      "dia": 5,
      "type": "DF",
      "code": "S01",
      "approved": "true",
      "name": "PN 05 RAM M12x1.5"
    },
    {
      "_id": "5fa6da6e1dc3c79146acbd88",
      "articlenumber": 87011112,
      "category": "GR",
      "dia": 5,
      "type": "DF",
      "code": "S23",
      "approved": "true",
      "name": "PN 05 RAR 1/4\""
    },
    {
      "_id": "5fa6da6e1dc3c79146acbd80",
      "articlenumber": 87011111,
      "category": "GR",
      "dia": 5,
      "type": "DF",
      "code": "S22",
      "approved": "true",
      "name": "PN 05 RAR 1/8\""
    },
    {
      "_id": "5fa6da6e1dc3c79146acbd8e",
      "articlenumber": 87010246,
      "category": "GR",
      "dia": 5,
      "type": "DF",
      "code": "T00",
      "approved": "true",
      "name": "PN 05 RSL 6L"
    },
    {
      "_id": "5fa6da6e1dc3c79146acbdb0",
      "articlenumber": 87010289,
      "category": "GR",
      "dia": 5,
      "type": "DF",
      "code": "T33",
      "approved": "true",
      "name": "PN 05 RSL 6L 45°"
    },
    {
      "_id": "5fa6da6e1dc3c79146acbdcb",
      "articlenumber": 87010327,
      "category": "GR",
      "dia": 5,
      "type": "DF",
      "code": "T60",
      "approved": "true",
      "name": "PN 05 RSL 6L 90°"
    },
    {
      "_id": "5fa6da6e1dc3c79146acbd91",
      "articlenumber": 87010247,
      "category": "GR",
      "dia": 5,
      "type": "DF",
      "code": "T01",
      "approved": "true",
      "name": "PN 05 RSS 8S"
    },
    {
      "_id": "5fa6da6e1dc3c79146acbdcc",
      "articlenumber": 87010328,
      "category": "GR",
      "dia": 5,
      "type": "DF",
      "code": "T61",
      "approved": "true",
      "name": "PN 05 RSS 8S 90°"
    },
    {
      "_id": "5fa6da6e1dc3c79146acbaff",
      "articlenumber": 87010644,
      "category": "GR",
      "dia": 8,
      "type": "DF",
      "code": "A04",
      "approved": "true",
      "name": "PN 08 AGJ 1/2\""
    },
    {
      "_id": "5fa6da6e1dc3c79146acbaee",
      "articlenumber": 87010646,
      "category": "GR",
      "dia": 8,
      "type": "DF",
      "code": "A06",
      "approved": "true",
      "name": "PN 08 AGJ 3/4\""
    },
    {
      "_id": "5fa6da6e1dc3c79146acbb01",
      "articlenumber": 87010645,
      "category": "GR",
      "dia": 8,
      "type": "DF",
      "code": "A05",
      "approved": "true",
      "name": "PN 08 AGJ 9/16\""
    },
    {
      "_id": "5fa6da6e1dc3c79146acbafb",
      "articlenumber": 87010006,
      "category": "GR",
      "dia": 8,
      "type": "DF",
      "code": "B06",
      "approved": "true",
      "name": "PN 08 AGL M16x1.5 (10L)"
    },
    {
      "_id": "5fa6da6e1dc3c79146acbaf8",
      "articlenumber": 87010007,
      "category": "GR",
      "dia": 8,
      "type": "DF",
      "code": "B07",
      "approved": "true",
      "name": "PN 08 AGL M18x1.5 (12L)"
    },
    {
      "_id": "5fa6da6e1dc3c79146acbc34",
      "articlenumber": 87010372,
      "category": "GR",
      "dia": 8,
      "type": "DF",
      "code": "L05",
      "approved": "true",
      "name": "PN 08 AGM M16x1.5"
    },
    {
      "_id": "5fa6da6e1dc3c79146acbb1d",
      "articlenumber": 87010874,
      "category": "GR",
      "dia": 8,
      "type": "DF",
      "code": "C04",
      "approved": "true",
      "name": "PN 08 AGN 1/4\""
    },
    {
      "_id": "5fa6da6e1dc3c79146acbb1a",
      "articlenumber": 87010875,
      "category": "GR",
      "dia": 8,
      "type": "DF",
      "code": "C05",
      "approved": "true",
      "name": "PN 08 AGN 3/8\""
    },
    {
      "_id": "5fa6da6e1dc3c79146acbb2b",
      "articlenumber": 87010757,
      "category": "GR",
      "dia": 8,
      "type": "DF",
      "code": "D02",
      "approved": "true",
      "name": "PN 08 AGORF 11/16\""
    },
    {
      "_id": "5fa6da6e1dc3c79146acbb47",
      "articlenumber": 87010510,
      "category": "GR",
      "dia": 8,
      "type": "DF",
      "code": "E08",
      "approved": "true",
      "name": "PN 08 AGR 1/2\""
    },
    {
      "_id": "5fa6da6e1dc3c79146acbb45",
      "articlenumber": 87010508,
      "category": "GR",
      "dia": 8,
      "type": "DF",
      "code": "E06",
      "approved": "true",
      "name": "PN 08 AGR 1/4\""
    },
    {
      "_id": "5fa6da6e1dc3c79146acbb46",
      "articlenumber": 87010509,
      "category": "GR",
      "dia": 8,
      "type": "DF",
      "code": "E07",
      "approved": "true",
      "name": "PN 08 AGR 3/8\""
    },
    {
      "_id": "5fa6da6e1dc3c79146acbb7e",
      "articlenumber": 87010142,
      "category": "GR",
      "dia": 8,
      "type": "DF",
      "code": "G03",
      "approved": "true",
      "name": "PN 08 AGS M18x1.5 (10S)"
    },
    {
      "_id": "5fa6da6e1dc3c79146acbb7d",
      "articlenumber": 87010143,
      "category": "GR",
      "dia": 8,
      "type": "DF",
      "code": "G04",
      "approved": "true",
      "name": "PN 08 AGS M20x1.5 (12S)"
    },
    {
      "_id": "5fa6da6e1dc3c79146acbd52",
      "articlenumber": 87011141,
      "category": "GR",
      "dia": 8,
      "type": "DF",
      "code": "Q02",
      "approved": "true",
      "name": "PN 08 DK-KMSU M14x1.5"
    },
    {
      "_id": "5fa6da6e1dc3c79146acbd54",
      "articlenumber": 87011142,
      "category": "GR",
      "dia": 8,
      "type": "DF",
      "code": "Q03",
      "approved": "true",
      "name": "PN 08 DK-KMSU M16x1.5"
    },
    {
      "_id": "5fa6da6e1dc3c79146acbb98",
      "articlenumber": 87010675,
      "category": "GR",
      "dia": 8,
      "type": "DF",
      "code": "H04",
      "approved": "true",
      "name": "PN 08 DKJ 1/2\""
    },
    {
      "_id": "5fa6da6e1dc3c79146acbbbe",
      "articlenumber": 87010731,
      "category": "GR",
      "dia": 8,
      "type": "DF",
      "code": "H40",
      "approved": "true",
      "name": "PN 08 DKJ 1/2\" 90°"
    },
    {
      "_id": "5fa6da6e1dc3c79146acbb99",
      "articlenumber": 87010677,
      "category": "GR",
      "dia": 8,
      "type": "DF",
      "code": "H06",
      "approved": "true",
      "name": "PN 08 DKJ 3/4\""
    },
    {
      "_id": "5fa6da6e1dc3c79146acbbac",
      "articlenumber": 87010706,
      "category": "GR",
      "dia": 8,
      "type": "DF",
      "code": "H25",
      "approved": "true",
      "name": "PN 08 DKJ 3/4\" 45°"
    },
    {
      "_id": "5fa6da6e1dc3c79146acbbba",
      "articlenumber": 87010733,
      "category": "GR",
      "dia": 8,
      "type": "DF",
      "code": "H42",
      "approved": "true",
      "name": "PN 08 DKJ 3/4\" 90°"
    },
    {
      "_id": "5fa6da6e1dc3c79146acbb96",
      "articlenumber": 87010676,
      "category": "GR",
      "dia": 8,
      "type": "DF",
      "code": "H05",
      "approved": "true",
      "name": "PN 08 DKJ 9/16\""
    },
    {
      "_id": "5fa6da6e1dc3c79146acbbb2",
      "articlenumber": 87010705,
      "category": "GR",
      "dia": 8,
      "type": "DF",
      "code": "H24",
      "approved": "true",
      "name": "PN 08 DKJ 9/16\" 45°"
    },
    {
      "_id": "5fa6da6e1dc3c79146acbbbb",
      "articlenumber": 87010732,
      "category": "GR",
      "dia": 8,
      "type": "DF",
      "code": "H41",
      "approved": "true",
      "name": "PN 08 DKJ 9/16\" 90°"
    },
    {
      "_id": "5fa6da6e1dc3c79146acbd60",
      "articlenumber": 87011187,
      "category": "GR",
      "dia": 8,
      "type": "DF",
      "code": "Q15",
      "approved": "true",
      "name": "PN 08 DKK-WA M22x1.5"
    },
    {
      "_id": "5fa6da6e1dc3c79146acbd16",
      "articlenumber": 87010400,
      "category": "GR",
      "dia": 8,
      "type": "DF",
      "code": "P06",
      "approved": "true",
      "name": "PN 08 DKM M14x1.5"
    },
    {
      "_id": "5fa6da6e1dc3c79146acbd2c",
      "articlenumber": 87010430,
      "category": "GR",
      "dia": 8,
      "type": "DF",
      "code": "P26",
      "approved": "true",
      "name": "PN 08 DKM M14x1.5 45°"
    },
    {
      "_id": "5fa6da6e1dc3c79146acbd44",
      "articlenumber": 87010461,
      "category": "GR",
      "dia": 8,
      "type": "DF",
      "code": "P47",
      "approved": "true",
      "name": "PN 08 DKM M14x1.5 90°"
    },
    {
      "_id": "5fa6da6e1dc3c79146acbd19",
      "articlenumber": 87010401,
      "category": "GR",
      "dia": 8,
      "type": "DF",
      "code": "P07",
      "approved": "true",
      "name": "PN 08 DKM M16x1.5"
    },
    {
      "_id": "5fa6da6e1dc3c79146acbd2f",
      "articlenumber": 87010431,
      "category": "GR",
      "dia": 8,
      "type": "DF",
      "code": "P27",
      "approved": "true",
      "name": "PN 08 DKM M16x1.5 45°"
    },
    {
      "_id": "5fa6da6e1dc3c79146acbd41",
      "articlenumber": 87010462,
      "category": "GR",
      "dia": 8,
      "type": "DF",
      "code": "P48",
      "approved": "true",
      "name": "PN 08 DKM M16x1.5 90°"
    },
    {
      "_id": "5fa6da6e1dc3c79146acbd1d",
      "articlenumber": 87010402,
      "category": "GR",
      "dia": 8,
      "type": "DF",
      "code": "P08",
      "approved": "true",
      "name": "PN 08 DKM M18x1.5"
    },
    {
      "_id": "5fa6da6e1dc3c79146acbd2e",
      "articlenumber": 87010432,
      "category": "GR",
      "dia": 8,
      "type": "DF",
      "code": "P28",
      "approved": "true",
      "name": "PN 08 DKM M18x1.5 45°"
    },
    {
      "_id": "5fa6da6e1dc3c79146acbd42",
      "articlenumber": 87010463,
      "category": "GR",
      "dia": 8,
      "type": "DF",
      "code": "P49",
      "approved": "true",
      "name": "PN 08 DKM M18x1.5 90°"
    },
    {
      "_id": "5fa6da6e1dc3c79146acbbea",
      "articlenumber": 87010041,
      "category": "GR",
      "dia": 8,
      "type": "DF",
      "code": "K06",
      "approved": "true",
      "name": "PN 08 DKOL M14x1.5 (8L)"
    },
    {
      "_id": "5fa6da6e1dc3c79146acbbf0",
      "articlenumber": 87010042,
      "category": "GR",
      "dia": 8,
      "type": "DF",
      "code": "K07",
      "approved": "true",
      "name": "PN 08 DKOL M16x1.5 (10L)"
    },
    {
      "_id": "5fa6da6e1dc3c79146acbc05",
      "articlenumber": 87010078,
      "category": "GR",
      "dia": 8,
      "type": "DF",
      "code": "K33",
      "approved": "true",
      "name": "PN 08 DKOL M16x1.5 45° (10L)"
    },
    {
      "_id": "5fa6da6e1dc3c79146acbc1a",
      "articlenumber": 87010110,
      "category": "GR",
      "dia": 8,
      "type": "DF",
      "code": "K55",
      "approved": "true",
      "name": "PN 08 DKOL M16x1.5 90° (10L)"
    },
    {
      "_id": "5fa6da6e1dc3c79146acbbec",
      "articlenumber": 87010043,
      "category": "GR",
      "dia": 8,
      "type": "DF",
      "code": "K08",
      "approved": "true",
      "name": "PN 08 DKOL M18x1.5 (12L)"
    },
    {
      "_id": "5fa6da6e1dc3c79146acbc08",
      "articlenumber": 87010079,
      "category": "GR",
      "dia": 8,
      "type": "DF",
      "code": "K34",
      "approved": "true",
      "name": "PN 08 DKOL M18x1.5 45° (12L)"
    },
    {
      "_id": "5fa6da6e1dc3c79146acbc1d",
      "articlenumber": 87010111,
      "category": "GR",
      "dia": 8,
      "type": "DF",
      "code": "K56",
      "approved": "true",
      "name": "PN 08 DKOL M18x1.5 90° (12L)"
    },
    {
      "_id": "5fa6da6e1dc3c79146acbc42",
      "articlenumber": 87010782,
      "category": "GR",
      "dia": 8,
      "type": "DF",
      "code": "M02",
      "approved": "true",
      "name": "PN 08 DKORF 11/16\""
    },
    {
      "_id": "5fa6da6e1dc3c79146acbc50",
      "articlenumber": 87010807,
      "category": "GR",
      "dia": 8,
      "type": "DF",
      "code": "M17",
      "approved": "true",
      "name": "PN 08 DKORF 11/16\" 45°"
    },
    {
      "_id": "5fa6da6e1dc3c79146acbc60",
      "articlenumber": 87010833,
      "category": "GR",
      "dia": 8,
      "type": "DF",
      "code": "M33",
      "approved": "true",
      "name": "PN 08 DKORF 11/16\" 90°"
    },
    {
      "_id": "5fa6da6e1dc3c79146acbc97",
      "articlenumber": 87010170,
      "category": "GR",
      "dia": 8,
      "type": "DF",
      "code": "N06",
      "approved": "true",
      "name": "PN 08 DKOS M18x1.5 (10S)"
    },
    {
      "_id": "5fa6da6e1dc3c79146acbca0",
      "articlenumber": 87010196,
      "category": "GR",
      "dia": 8,
      "type": "DF",
      "code": "N22",
      "approved": "true",
      "name": "PN 08 DKOS M18x1.5 45° (10S)"
    },
    {
      "_id": "5fa6da6e1dc3c79146acbcb4",
      "articlenumber": 87010224,
      "category": "GR",
      "dia": 8,
      "type": "DF",
      "code": "N40",
      "approved": "true",
      "name": "PN 08 DKOS M18x1.5 90° (10S)"
    },
    {
      "_id": "5fa6da6e1dc3c79146acbc91",
      "articlenumber": 87010171,
      "category": "GR",
      "dia": 8,
      "type": "DF",
      "code": "N07",
      "approved": "true",
      "name": "PN 08 DKOS M20x1.5 (12S)"
    },
    {
      "_id": "5fa6da6e1dc3c79146acbca1",
      "articlenumber": 87010197,
      "category": "GR",
      "dia": 8,
      "type": "DF",
      "code": "N23",
      "approved": "true",
      "name": "PN 08 DKOS M20x1.5 45° (12S)"
    },
    {
      "_id": "5fa6da6e1dc3c79146acbcb9",
      "articlenumber": 87010225,
      "category": "GR",
      "dia": 8,
      "type": "DF",
      "code": "N41",
      "approved": "true",
      "name": "PN 08 DKOS M20x1.5 90° (12S)"
    },
    {
      "_id": "5fa6da6e1dc3c79146acbcdd",
      "articlenumber": 87010546,
      "category": "GR",
      "dia": 8,
      "type": "DF",
      "code": "O08",
      "approved": "true",
      "name": "PN 08 DKR 1/2\""
    },
    {
      "_id": "5fa6da6e1dc3c79146acbd06",
      "articlenumber": 87010606,
      "category": "GR",
      "dia": 8,
      "type": "DF",
      "code": "O48",
      "approved": "true",
      "name": "PN 08 DKR 1/2\" 90°"
    },
    {
      "_id": "5fa6da6e1dc3c79146acbcdb",
      "articlenumber": 87010544,
      "category": "GR",
      "dia": 8,
      "type": "DF",
      "code": "O06",
      "approved": "true",
      "name": "PN 08 DKR 1/4\""
    },
    {
      "_id": "5fa6da6e1dc3c79146acbcee",
      "articlenumber": 87010575,
      "category": "GR",
      "dia": 8,
      "type": "DF",
      "code": "O27",
      "approved": "true",
      "name": "PN 08 DKR 1/4\" 45°"
    },
    {
      "_id": "5fa6da6e1dc3c79146acbd03",
      "articlenumber": 87010604,
      "category": "GR",
      "dia": 8,
      "type": "DF",
      "code": "O46",
      "approved": "true",
      "name": "PN 08 DKR 1/4\" 90°"
    },
    {
      "_id": "5fa6da6e1dc3c79146acbcdc",
      "articlenumber": 87010545,
      "category": "GR",
      "dia": 8,
      "type": "DF",
      "code": "O07",
      "approved": "true",
      "name": "PN 08 DKR 3/8\""
    },
    {
      "_id": "5fa6da6e1dc3c79146acbcf1",
      "articlenumber": 87010576,
      "category": "GR",
      "dia": 8,
      "type": "DF",
      "code": "O28",
      "approved": "true",
      "name": "PN 08 DKR 3/8\" 45°"
    },
    {
      "_id": "5fa6da6e1dc3c79146acbd04",
      "articlenumber": 87010605,
      "category": "GR",
      "dia": 8,
      "type": "DF",
      "code": "O47",
      "approved": "true",
      "name": "PN 08 DKR 3/8\" 90°"
    },
    {
      "_id": "5fa6da6e1dc3c79146acbd6e",
      "articlenumber": 87011087,
      "category": "GR",
      "dia": 8,
      "type": "DF",
      "code": "S07",
      "approved": "true",
      "name": "PN 08 RAM M12x1.5"
    },
    {
      "_id": "5fa6da6e1dc3c79146acbd6d",
      "articlenumber": 87011088,
      "category": "GR",
      "dia": 8,
      "type": "DF",
      "code": "S08",
      "approved": "true",
      "name": "PN 08 RAM M14x1.5"
    },
    {
      "_id": "5fa6da6e1dc3c79146acbd71",
      "articlenumber": 87011089,
      "category": "GR",
      "dia": 8,
      "type": "DF",
      "code": "S09",
      "approved": "true",
      "name": "PN 08 RAM M16x1.5"
    },
    {
      "_id": "5fa6da6e1dc3c79146acbd74",
      "articlenumber": 87011090,
      "category": "GR",
      "dia": 8,
      "type": "DF",
      "code": "S10",
      "approved": "true",
      "name": "PN 08 RAM M18x1.5"
    },
    {
      "_id": "5fa6da6e1dc3c79146acbd83",
      "articlenumber": 87011118,
      "category": "GR",
      "dia": 8,
      "type": "DF",
      "code": "S29",
      "approved": "true",
      "name": "PN 08 RAR 1/2\""
    },
    {
      "_id": "5fa6da6e1dc3c79146acbd81",
      "articlenumber": 87011116,
      "category": "GR",
      "dia": 8,
      "type": "DF",
      "code": "S27",
      "approved": "true",
      "name": "PN 08 RAR 1/4\""
    },
    {
      "_id": "5fa6da6e1dc3c79146acbd82",
      "articlenumber": 87011117,
      "category": "GR",
      "dia": 8,
      "type": "DF",
      "code": "S28",
      "approved": "true",
      "name": "PN 08 RAR 3/8\""
    },
    {
      "_id": "5fa6da6e1dc3c79146acbd95",
      "articlenumber": 87010253,
      "category": "GR",
      "dia": 8,
      "type": "DF",
      "code": "T07",
      "approved": "true",
      "name": "PN 08 RSL 10L"
    },
    {
      "_id": "5fa6da6e1dc3c79146acbdb4",
      "articlenumber": 87010294,
      "category": "GR",
      "dia": 8,
      "type": "DF",
      "code": "T38",
      "approved": "true",
      "name": "PN 08 RSL 10L 45°"
    },
    {
      "_id": "5fa6da6e1dc3c79146acbdd4",
      "articlenumber": 87010334,
      "category": "GR",
      "dia": 8,
      "type": "DF",
      "code": "T67",
      "approved": "true",
      "name": "PN 08 RSL 10L 90°"
    },
    {
      "_id": "5fa6da6e1dc3c79146acbd94",
      "articlenumber": 87010252,
      "category": "GR",
      "dia": 8,
      "type": "DF",
      "code": "T06",
      "approved": "true",
      "name": "PN 08 RSL 8L"
    },
    {
      "_id": "5fa6da6e1dc3c79146acbdd0",
      "articlenumber": 87010333,
      "category": "GR",
      "dia": 8,
      "type": "DF",
      "code": "T66",
      "approved": "true",
      "name": "PN 08 RSL 8L 90°"
    },
    {
      "_id": "5fa6da6e1dc3c79146acbd96",
      "articlenumber": 87010254,
      "category": "GR",
      "dia": 8,
      "type": "DF",
      "code": "T08",
      "approved": "true",
      "name": "PN 08 RSS 12S"
    },
    {
      "_id": "5fa6da6e1dc3c79146acbdb6",
      "articlenumber": 87010295,
      "category": "GR",
      "dia": 8,
      "type": "DF",
      "code": "T39",
      "approved": "true",
      "name": "PN 08 RSS 12S 45°"
    },
    {
      "_id": "5fa6da6e1dc3c79146acbdd2",
      "articlenumber": 87010335,
      "category": "GR",
      "dia": 8,
      "type": "DF",
      "code": "T68",
      "approved": "true",
      "name": "PN 08 RSS 12S 90°"
    },
    {
      "_id": "5fa6da6e1dc3c79146acbe8c",
      "articlenumber": 87011171,
      "category": "GR",
      "dia": 8,
      "type": "DF",
      "code": "Y01",
      "approved": "true",
      "name": "PN 08 VB"
    },
    {
      "_id": "5fa6da6e1dc3c79146acbd84",
      "articlenumber": 87011119,
      "category": "GR",
      "dia": 8,
      "type": "DF",
      "code": "S30",
      "approved": "true",
      "name": "PN 10 RAR 1/4\""
    },
    {
      "_id": "5fa6da6e1dc3c79146acbb05",
      "articlenumber": 87010649,
      "category": "GR",
      "dia": 10,
      "type": "DF",
      "code": "A09",
      "approved": "true",
      "name": "PN 10 AGJ 3/4\""
    },
    {
      "_id": "5fa6da6e1dc3c79146acbb04",
      "articlenumber": 87010648,
      "category": "GR",
      "dia": 10,
      "type": "DF",
      "code": "A08",
      "approved": "true",
      "name": "PN 10 AGJ 5/8\""
    },
    {
      "_id": "5fa6da6e1dc3c79146acbb07",
      "articlenumber": 87010650,
      "category": "GR",
      "dia": 10,
      "type": "DF",
      "code": "A10",
      "approved": "true",
      "name": "PN 10 AGJ 7/8\""
    },
    {
      "_id": "5fa6da6e1dc3c79146acbb03",
      "articlenumber": 87010647,
      "category": "GR",
      "dia": 10,
      "type": "DF",
      "code": "A07",
      "approved": "true",
      "name": "PN 10 AGJ 9/16\""
    },
    {
      "_id": "5fa6da6e1dc3c79146acbaf9",
      "articlenumber": 87010008,
      "category": "GR",
      "dia": 10,
      "type": "DF",
      "code": "B08",
      "approved": "true",
      "name": "PN 10 AGL M16x1.5 (10L)"
    },
    {
      "_id": "5fa6da6e1dc3c79146acbafa",
      "articlenumber": 87010009,
      "category": "GR",
      "dia": 10,
      "type": "DF",
      "code": "B09",
      "approved": "true",
      "name": "PN 10 AGL M18x1.5 (12L)"
    },
    {
      "_id": "5fa6da6e1dc3c79146acbafd",
      "articlenumber": 87010010,
      "category": "GR",
      "dia": 10,
      "type": "DF",
      "code": "B10",
      "approved": "true",
      "name": "PN 10 AGL M22x1.5 (15L)"
    },
    {
      "_id": "5fa6da6e1dc3c79146acbb0e",
      "articlenumber": 87010011,
      "category": "GR",
      "dia": 10,
      "type": "DF",
      "code": "B11",
      "approved": "true",
      "name": "PN 10 AGL M26x1.5 (18L)"
    },
    {
      "_id": "5fa6da6e1dc3c79146acbc36",
      "articlenumber": 87010373,
      "category": "GR",
      "dia": 10,
      "type": "DF",
      "code": "L06",
      "approved": "true",
      "name": "PN 10 AGM M16x1.5"
    },
    {
      "_id": "5fa6da6e1dc3c79146acbc35",
      "articlenumber": 87010374,
      "category": "GR",
      "dia": 10,
      "type": "DF",
      "code": "L07",
      "approved": "true",
      "name": "PN 10 AGM M18x1.5"
    },
    {
      "_id": "5fa6da6e1dc3c79146acbc38",
      "articlenumber": 87010375,
      "category": "GR",
      "dia": 10,
      "type": "DF",
      "code": "L08",
      "approved": "true",
      "name": "PN 10 AGM M20x1.5"
    },
    {
      "_id": "5fa6da6e1dc3c79146acbc37",
      "articlenumber": 87010376,
      "category": "GR",
      "dia": 10,
      "type": "DF",
      "code": "L09",
      "approved": "true",
      "name": "PN 10 AGM M22x1.5"
    },
    {
      "_id": "5fa6da6e1dc3c79146acbb1b",
      "articlenumber": 87010877,
      "category": "GR",
      "dia": 10,
      "type": "DF",
      "code": "C07",
      "approved": "true",
      "name": "PN 10 AGN 1/2\""
    },
    {
      "_id": "5fa6da6e1dc3c79146acbb1e",
      "articlenumber": 87010876,
      "category": "GR",
      "dia": 10,
      "type": "DF",
      "code": "C06",
      "approved": "true",
      "name": "PN 10 AGN 3/8\""
    },
    {
      "_id": "5fa6da6e1dc3c79146acbb2c",
      "articlenumber": 87010758,
      "category": "GR",
      "dia": 10,
      "type": "DF",
      "code": "D03",
      "approved": "true",
      "name": "PN 10 AGORF 11/16\""
    },
    {
      "_id": "5fa6da6e1dc3c79146acbb2f",
      "articlenumber": 87010759,
      "category": "GR",
      "dia": 10,
      "type": "DF",
      "code": "D04",
      "approved": "true",
      "name": "PN 10 AGORF 13/16\""
    },
    {
      "_id": "5fa6da6e1dc3c79146acbb4b",
      "articlenumber": 87010513,
      "category": "GR",
      "dia": 10,
      "type": "DF",
      "code": "E11",
      "approved": "true",
      "name": "PN 10 AGR 1/2\""
    },
    {
      "_id": "5fa6da6e1dc3c79146acbb49",
      "articlenumber": 87010511,
      "category": "GR",
      "dia": 10,
      "type": "DF",
      "code": "E09",
      "approved": "true",
      "name": "PN 10 AGR 1/4\""
    },
    {
      "_id": "5fa6da6e1dc3c79146acbb4a",
      "articlenumber": 87010512,
      "category": "GR",
      "dia": 10,
      "type": "DF",
      "code": "E10",
      "approved": "true",
      "name": "PN 10 AGR 3/8\""
    },
    {
      "_id": "5fa6da6e1dc3c79146acbb73",
      "articlenumber": 87010484,
      "category": "GR",
      "dia": 10,
      "type": "DF",
      "code": "F04",
      "approved": "true",
      "name": "PN 10 AGRK 1/2\""
    },
    {
      "_id": "5fa6da6e1dc3c79146acbb71",
      "articlenumber": 87010483,
      "category": "GR",
      "dia": 10,
      "type": "DF",
      "code": "F03",
      "approved": "true",
      "name": "PN 10 AGRK 3/8\""
    },
    {
      "_id": "5fa6da6e1dc3c79146acbb80",
      "articlenumber": 87010144,
      "category": "GR",
      "dia": 10,
      "type": "DF",
      "code": "G05",
      "approved": "true",
      "name": "PN 10 AGS M18x1.5 (10S)"
    },
    {
      "_id": "5fa6da6e1dc3c79146acbb81",
      "articlenumber": 87010145,
      "category": "GR",
      "dia": 10,
      "type": "DF",
      "code": "G06",
      "approved": "true",
      "name": "PN 10 AGS M20x1.5 (12S)"
    },
    {
      "_id": "5fa6da6e1dc3c79146acbb82",
      "articlenumber": 87010146,
      "category": "GR",
      "dia": 10,
      "type": "DF",
      "code": "G07",
      "approved": "true",
      "name": "PN 10 AGS M22x1.5 (14S)"
    },
    {
      "_id": "5fa6da6e1dc3c79146acbd55",
      "articlenumber": 87011143,
      "category": "GR",
      "dia": 10,
      "type": "DF",
      "code": "Q04",
      "approved": "true",
      "name": "PN 10 DK-KMSU M16x1.5"
    },
    {
      "_id": "5fa6da6e1dc3c79146acbd56",
      "articlenumber": 87011144,
      "category": "GR",
      "dia": 10,
      "type": "DF",
      "code": "Q05",
      "approved": "true",
      "name": "PN 10 DK-KMSU M18x1.5"
    },
    {
      "_id": "5fa6da6e1dc3c79146acbd5b",
      "articlenumber": 87011158,
      "category": "GR",
      "dia": 10,
      "type": "DF",
      "code": "Q10",
      "approved": "true",
      "name": "PN 10 DK-TYTA 3/8\""
    },
    {
      "_id": "5fa6da6e1dc3c79146acbbbc",
      "articlenumber": 87010734,
      "category": "GR",
      "dia": 10,
      "type": "DF",
      "code": "H43",
      "approved": "true",
      "name": "PN 10 DKJ 1/2\" 90°"
    },
    {
      "_id": "5fa6da6e1dc3c79146acbb9a",
      "articlenumber": 87010679,
      "category": "GR",
      "dia": 10,
      "type": "DF",
      "code": "H08",
      "approved": "true",
      "name": "PN 10 DKJ 3/4\""
    },
    {
      "_id": "5fa6da6e1dc3c79146acbbaf",
      "articlenumber": 87010708,
      "category": "GR",
      "dia": 10,
      "type": "DF",
      "code": "H27",
      "approved": "true",
      "name": "PN 10 DKJ 3/4\" 45°"
    },
    {
      "_id": "5fa6da6e1dc3c79146acbbc0",
      "articlenumber": 87010737,
      "category": "GR",
      "dia": 10,
      "type": "DF",
      "code": "H46",
      "approved": "true",
      "name": "PN 10 DKJ 3/4\" 90°"
    },
    {
      "_id": "5fa6da6e1dc3c79146acbbbf",
      "articlenumber": 87010736,
      "category": "GR",
      "dia": 10,
      "type": "DF",
      "code": "H45",
      "approved": "true",
      "name": "PN 10 DKJ 5/8\" 90°"
    },
    {
      "_id": "5fa6da6e1dc3c79146acbba1",
      "articlenumber": 87010680,
      "category": "GR",
      "dia": 10,
      "type": "DF",
      "code": "H09",
      "approved": "true",
      "name": "PN 10 DKJ 7/8\""
    },
    {
      "_id": "5fa6da6e1dc3c79146acbbad",
      "articlenumber": 87010709,
      "category": "GR",
      "dia": 10,
      "type": "DF",
      "code": "H28",
      "approved": "true",
      "name": "PN 10 DKJ 7/8\" 45°"
    },
    {
      "_id": "5fa6da6e1dc3c79146acbbc1",
      "articlenumber": 87010738,
      "category": "GR",
      "dia": 10,
      "type": "DF",
      "code": "H47",
      "approved": "true",
      "name": "PN 10 DKJ 7/8\" 90°"
    },
    {
      "_id": "5fa6da6e1dc3c79146acbb97",
      "articlenumber": 87010678,
      "category": "GR",
      "dia": 10,
      "type": "DF",
      "code": "H07",
      "approved": "true",
      "name": "PN 10 DKJ 9/16\""
    },
    {
      "_id": "5fa6da6e1dc3c79146acbbaa",
      "articlenumber": 87010707,
      "category": "GR",
      "dia": 10,
      "type": "DF",
      "code": "H26",
      "approved": "true",
      "name": "PN 10 DKJ 9/16\" 45°"
    },
    {
      "_id": "5fa6da6e1dc3c79146acbbbd",
      "articlenumber": 87010735,
      "category": "GR",
      "dia": 10,
      "type": "DF",
      "code": "H44",
      "approved": "true",
      "name": "PN 10 DKJ 9/16\" 90°"
    },
    {
      "_id": "5fa6da6e1dc3c79146acbd62",
      "articlenumber": 87011188,
      "category": "GR",
      "dia": 10,
      "type": "DF",
      "code": "Q16",
      "approved": "true",
      "name": "PN 10 DKK-WA M22x1.5"
    },
    {
      "_id": "5fa6da6e1dc3c79146acbd1c",
      "articlenumber": 87010403,
      "category": "GR",
      "dia": 10,
      "type": "DF",
      "code": "P09",
      "approved": "true",
      "name": "PN 10 DKM M14x1.5"
    },
    {
      "_id": "5fa6da6e1dc3c79146acbd31",
      "articlenumber": 87010433,
      "category": "GR",
      "dia": 10,
      "type": "DF",
      "code": "P29",
      "approved": "true",
      "name": "PN 10 DKM M14x1.5 45°"
    },
    {
      "_id": "5fa6da6e1dc3c79146acbd43",
      "articlenumber": 87010464,
      "category": "GR",
      "dia": 10,
      "type": "DF",
      "code": "P50",
      "approved": "true",
      "name": "PN 10 DKM M14x1.5 90°"
    },
    {
      "_id": "5fa6da6e1dc3c79146acbd1b",
      "articlenumber": 87010404,
      "category": "GR",
      "dia": 10,
      "type": "DF",
      "code": "P10",
      "approved": "true",
      "name": "PN 10 DKM M16x1.5"
    },
    {
      "_id": "5fa6da6e1dc3c79146acbd30",
      "articlenumber": 87010434,
      "category": "GR",
      "dia": 10,
      "type": "DF",
      "code": "P30",
      "approved": "true",
      "name": "PN 10 DKM M16x1.5 45°"
    },
    {
      "_id": "5fa6da6e1dc3c79146acbd46",
      "articlenumber": 87010465,
      "category": "GR",
      "dia": 10,
      "type": "DF",
      "code": "P51",
      "approved": "true",
      "name": "PN 10 DKM M16x1.5 90°"
    },
    {
      "_id": "5fa6da6e1dc3c79146acbd1f",
      "articlenumber": 87010405,
      "category": "GR",
      "dia": 10,
      "type": "DF",
      "code": "P11",
      "approved": "true",
      "name": "PN 10 DKM M18x1.5"
    },
    {
      "_id": "5fa6da6e1dc3c79146acbd32",
      "articlenumber": 87010435,
      "category": "GR",
      "dia": 10,
      "type": "DF",
      "code": "P31",
      "approved": "true",
      "name": "PN 10 DKM M18x1.5 45°"
    },
    {
      "_id": "5fa6da6e1dc3c79146acbd47",
      "articlenumber": 87010466,
      "category": "GR",
      "dia": 10,
      "type": "DF",
      "code": "P52",
      "approved": "true",
      "name": "PN 10 DKM M18x1.5 90°"
    },
    {
      "_id": "5fa6da6e1dc3c79146acbd1e",
      "articlenumber": 87010406,
      "category": "GR",
      "dia": 10,
      "type": "DF",
      "code": "P12",
      "approved": "true",
      "name": "PN 10 DKM M20x1.5"
    },
    {
      "_id": "5fa6da6e1dc3c79146acbd33",
      "articlenumber": 87010436,
      "category": "GR",
      "dia": 10,
      "type": "DF",
      "code": "P32",
      "approved": "true",
      "name": "PN 10 DKM M20x1.5 45°"
    },
    {
      "_id": "5fa6da6e1dc3c79146acbd49",
      "articlenumber": 87010467,
      "category": "GR",
      "dia": 10,
      "type": "DF",
      "code": "P53",
      "approved": "true",
      "name": "PN 10 DKM M20x1.5 90°"
    },
    {
      "_id": "5fa6da6e1dc3c79146acbd21",
      "articlenumber": 87010407,
      "category": "GR",
      "dia": 10,
      "type": "DF",
      "code": "P13",
      "approved": "true",
      "name": "PN 10 DKM M22x1.5"
    },
    {
      "_id": "5fa6da6e1dc3c79146acbd37",
      "articlenumber": 87010437,
      "category": "GR",
      "dia": 10,
      "type": "DF",
      "code": "P33",
      "approved": "true",
      "name": "PN 10 DKM M22x1.5 45°"
    },
    {
      "_id": "5fa6da6e1dc3c79146acbd4a",
      "articlenumber": 87010468,
      "category": "GR",
      "dia": 10,
      "type": "DF",
      "code": "P54",
      "approved": "true",
      "name": "PN 10 DKM M22x1.5 90°"
    },
    {
      "_id": "5fa6da6e1dc3c79146acbbee",
      "articlenumber": 87010044,
      "category": "GR",
      "dia": 10,
      "type": "DF",
      "code": "K09",
      "approved": "true",
      "name": "PN 10 DKOL M16x1.5 (10L)"
    },
    {
      "_id": "5fa6da6e1dc3c79146acbc07",
      "articlenumber": 87010080,
      "category": "GR",
      "dia": 10,
      "type": "DF",
      "code": "K35",
      "approved": "true",
      "name": "PN 10 DKOL M16x1.5 45° (10L)"
    },
    {
      "_id": "5fa6da6e1dc3c79146acbc1e",
      "articlenumber": 87010112,
      "category": "GR",
      "dia": 10,
      "type": "DF",
      "code": "K57",
      "approved": "true",
      "name": "PN 10 DKOL M16x1.5 90° (10L)"
    },
    {
      "_id": "5fa6da6e1dc3c79146acbbed",
      "articlenumber": 87010045,
      "category": "GR",
      "dia": 10,
      "type": "DF",
      "code": "K10",
      "approved": "true",
      "name": "PN 10 DKOL M18x1.5 (12L)"
    },
    {
      "_id": "5fa6da6e1dc3c79146acbc10",
      "articlenumber": 87010081,
      "category": "GR",
      "dia": 10,
      "type": "DF",
      "code": "K36",
      "approved": "true",
      "name": "PN 10 DKOL M18x1.5 45° (12L)"
    },
    {
      "_id": "5fa6da6e1dc3c79146acbc1c",
      "articlenumber": 87010113,
      "category": "GR",
      "dia": 10,
      "type": "DF",
      "code": "K58",
      "approved": "true",
      "name": "PN 10 DKOL M18x1.5 90° (12L)"
    },
    {
      "_id": "5fa6da6e1dc3c79146acbbf1",
      "articlenumber": 87010046,
      "category": "GR",
      "dia": 10,
      "type": "DF",
      "code": "K11",
      "approved": "true",
      "name": "PN 10 DKOL M22x1.5 (15L)"
    },
    {
      "_id": "5fa6da6e1dc3c79146acbc0b",
      "articlenumber": 87010082,
      "category": "GR",
      "dia": 10,
      "type": "DF",
      "code": "K37",
      "approved": "true",
      "name": "PN 10 DKOL M22x1.5 45° (15L)"
    },
    {
      "_id": "5fa6da6e1dc3c79146acbc1f",
      "articlenumber": 87010114,
      "category": "GR",
      "dia": 10,
      "type": "DF",
      "code": "K59",
      "approved": "true",
      "name": "PN 10 DKOL M22x1.5 90° (15L)"
    },
    {
      "_id": "5fa6da6e1dc3c79146acbc41",
      "articlenumber": 87010783,
      "category": "GR",
      "dia": 10,
      "type": "DF",
      "code": "M03",
      "approved": "true",
      "name": "PN 10 DKORF 11/16\""
    },
    {
      "_id": "5fa6da6e1dc3c79146acbc57",
      "articlenumber": 87010808,
      "category": "GR",
      "dia": 10,
      "type": "DF",
      "code": "M18",
      "approved": "true",
      "name": "PN 10 DKORF 11/16\" 45°"
    },
    {
      "_id": "5fa6da6e1dc3c79146acbc61",
      "articlenumber": 87010834,
      "category": "GR",
      "dia": 10,
      "type": "DF",
      "code": "M34",
      "approved": "true",
      "name": "PN 10 DKORF 11/16\" 90°"
    },
    {
      "_id": "5fa6da6e1dc3c79146acbc6e",
      "articlenumber": 87010857,
      "category": "GR",
      "dia": 10,
      "type": "DF",
      "code": "M47",
      "approved": "true",
      "name": "PN 10 DKORF 11/16\" 90° SL=54"
    },
    {
      "_id": "5fa6da6e1dc3c79146acbc45",
      "articlenumber": 87010784,
      "category": "GR",
      "dia": 10,
      "type": "DF",
      "code": "M04",
      "approved": "true",
      "name": "PN 10 DKORF 13/16\""
    },
    {
      "_id": "5fa6da6e1dc3c79146acbc5a",
      "articlenumber": 87010809,
      "category": "GR",
      "dia": 10,
      "type": "DF",
      "code": "M19",
      "approved": "true",
      "name": "PN 10 DKORF 13/16\" 45°"
    },
    {
      "_id": "5fa6da6e1dc3c79146acbc67",
      "articlenumber": 87010835,
      "category": "GR",
      "dia": 10,
      "type": "DF",
      "code": "M35",
      "approved": "true",
      "name": "PN 10 DKORF 13/16\" 90°"
    },
    {
      "_id": "5fa6da6e1dc3c79146acbc70",
      "articlenumber": 87010858,
      "category": "GR",
      "dia": 10,
      "type": "DF",
      "code": "M48",
      "approved": "true",
      "name": "PN 10 DKORF 13/16\" 90° SL=64"
    },
    {
      "_id": "5fa6da6e1dc3c79146acbc95",
      "articlenumber": 87010172,
      "category": "GR",
      "dia": 10,
      "type": "DF",
      "code": "N08",
      "approved": "true",
      "name": "PN 10 DKOS M18x1.5 (10S)"
    },
    {
      "_id": "5fa6da6e1dc3c79146acbca2",
      "articlenumber": 87010198,
      "category": "GR",
      "dia": 10,
      "type": "DF",
      "code": "N24",
      "approved": "true",
      "name": "PN 10 DKOS M18x1.5 45° (10S)"
    },
    {
      "_id": "5fa6da6e1dc3c79146acbcb6",
      "articlenumber": 87010226,
      "category": "GR",
      "dia": 10,
      "type": "DF",
      "code": "N42",
      "approved": "true",
      "name": "PN 10 DKOS M18x1.5 90° (10S)"
    },
    {
      "_id": "5fa6da6e1dc3c79146acbc92",
      "articlenumber": 87010173,
      "category": "GR",
      "dia": 10,
      "type": "DF",
      "code": "N09",
      "approved": "true",
      "name": "PN 10 DKOS M20x1.5 (12S)"
    },
    {
      "_id": "5fa6da6e1dc3c79146acbca5",
      "articlenumber": 87010199,
      "category": "GR",
      "dia": 10,
      "type": "DF",
      "code": "N25",
      "approved": "true",
      "name": "PN 10 DKOS M20x1.5 45° (12S)"
    },
    {
      "_id": "5fa6da6e1dc3c79146acbcb3",
      "articlenumber": 87010227,
      "category": "GR",
      "dia": 10,
      "type": "DF",
      "code": "N43",
      "approved": "true",
      "name": "PN 10 DKOS M20x1.5 90° (12S)"
    },
    {
      "_id": "5fa6da6e1dc3c79146acbc94",
      "articlenumber": 87010174,
      "category": "GR",
      "dia": 10,
      "type": "DF",
      "code": "N10",
      "approved": "true",
      "name": "PN 10 DKOS M22x1.5 (14S)"
    },
    {
      "_id": "5fa6da6e1dc3c79146acbca6",
      "articlenumber": 87010200,
      "category": "GR",
      "dia": 10,
      "type": "DF",
      "code": "N26",
      "approved": "true",
      "name": "PN 10 DKOS M22x1.5 45° (14S)"
    },
    {
      "_id": "5fa6da6e1dc3c79146acbcb7",
      "articlenumber": 87010228,
      "category": "GR",
      "dia": 10,
      "type": "DF",
      "code": "N44",
      "approved": "true",
      "name": "PN 10 DKOS M22x1.5 90° (14S)"
    },
    {
      "_id": "5fa6da6e1dc3c79146acbce3",
      "articlenumber": 87010549,
      "category": "GR",
      "dia": 10,
      "type": "DF",
      "code": "O11",
      "approved": "true",
      "name": "PN 10 DKR 1/2\""
    },
    {
      "_id": "5fa6da6e1dc3c79146acbcf3",
      "articlenumber": 87010579,
      "category": "GR",
      "dia": 10,
      "type": "DF",
      "code": "O31",
      "approved": "true",
      "name": "PN 10 DKR 1/2\" 45°"
    },
    {
      "_id": "5fa6da6e1dc3c79146acbd07",
      "articlenumber": 87010609,
      "category": "GR",
      "dia": 10,
      "type": "DF",
      "code": "O51",
      "approved": "true",
      "name": "PN 10 DKR 1/2\" 90°"
    },
    {
      "_id": "5fa6da6e1dc3c79146acbcde",
      "articlenumber": 87010547,
      "category": "GR",
      "dia": 10,
      "type": "DF",
      "code": "O09",
      "approved": "true",
      "name": "PN 10 DKR 1/4\""
    },
    {
      "_id": "5fa6da6e1dc3c79146acbcef",
      "articlenumber": 87010577,
      "category": "GR",
      "dia": 10,
      "type": "DF",
      "code": "O29",
      "approved": "true",
      "name": "PN 10 DKR 1/4\" 45°"
    },
    {
      "_id": "5fa6da6e1dc3c79146acbd05",
      "articlenumber": 87010607,
      "category": "GR",
      "dia": 10,
      "type": "DF",
      "code": "O49",
      "approved": "true",
      "name": "PN 10 DKR 1/4\" 90°"
    },
    {
      "_id": "5fa6da6e1dc3c79146acbcdf",
      "articlenumber": 87010548,
      "category": "GR",
      "dia": 10,
      "type": "DF",
      "code": "O10",
      "approved": "true",
      "name": "PN 10 DKR 3/8\""
    },
    {
      "_id": "5fa6da6e1dc3c79146acbcf0",
      "articlenumber": 87010578,
      "category": "GR",
      "dia": 10,
      "type": "DF",
      "code": "O30",
      "approved": "true",
      "name": "PN 10 DKR 3/8\" 45°"
    },
    {
      "_id": "5fa6da6e1dc3c79146acbd08",
      "articlenumber": 87010608,
      "category": "GR",
      "dia": 10,
      "type": "DF",
      "code": "O50",
      "approved": "true",
      "name": "PN 10 DKR 3/8\" 90°"
    },
    {
      "_id": "5fa6da6e1dc3c79146acbd64",
      "articlenumber": 87010631,
      "category": "GR",
      "dia": 10,
      "type": "DF",
      "code": "R01",
      "approved": "true",
      "name": "PN 10 DKR 3/8\" K"
    },
    {
      "_id": "5fa6da6e1dc3c79146acbd70",
      "articlenumber": 87011091,
      "category": "GR",
      "dia": 10,
      "type": "DF",
      "code": "S11",
      "approved": "true",
      "name": "PN 10 RAM M14x1.5"
    },
    {
      "_id": "5fa6da6e1dc3c79146acbd73",
      "articlenumber": 87011092,
      "category": "GR",
      "dia": 10,
      "type": "DF",
      "code": "S12",
      "approved": "true",
      "name": "PN 10 RAM M16x1.5"
    },
    {
      "_id": "5fa6da6e1dc3c79146acbd72",
      "articlenumber": 87011093,
      "category": "GR",
      "dia": 10,
      "type": "DF",
      "code": "S13",
      "approved": "true",
      "name": "PN 10 RAM M18x1.5"
    },
    {
      "_id": "5fa6da6e1dc3c79146acbd78",
      "articlenumber": 87011094,
      "category": "GR",
      "dia": 10,
      "type": "DF",
      "code": "S14",
      "approved": "true",
      "name": "PN 10 RAM M20x1.5"
    },
    {
      "_id": "5fa6da6e1dc3c79146acbd79",
      "articlenumber": 87011095,
      "category": "GR",
      "dia": 10,
      "type": "DF",
      "code": "S15",
      "approved": "true",
      "name": "PN 10 RAM M22x1.5"
    },
    {
      "_id": "5fa6da6e1dc3c79146acbd85",
      "articlenumber": 87011121,
      "category": "GR",
      "dia": 10,
      "type": "DF",
      "code": "S32",
      "approved": "true",
      "name": "PN 10 RAR 1/2\""
    },
    {
      "_id": "5fa6da6e1dc3c79146acbd86",
      "articlenumber": 87011120,
      "category": "GR",
      "dia": 10,
      "type": "DF",
      "code": "S31",
      "approved": "true",
      "name": "PN 10 RAR 3/8\""
    },
    {
      "_id": "5fa6da6e1dc3c79146acbd97",
      "articlenumber": 87010255,
      "category": "GR",
      "dia": 10,
      "type": "DF",
      "code": "T09",
      "approved": "true",
      "name": "PN 10 RSL 10L"
    },
    {
      "_id": "5fa6da6e1dc3c79146acbdb7",
      "articlenumber": 87010296,
      "category": "GR",
      "dia": 10,
      "type": "DF",
      "code": "T40",
      "approved": "true",
      "name": "PN 10 RSL 10L 45°"
    },
    {
      "_id": "5fa6da6e1dc3c79146acbdd3",
      "articlenumber": 87010336,
      "category": "GR",
      "dia": 10,
      "type": "DF",
      "code": "T69",
      "approved": "true",
      "name": "PN 10 RSL 10L 90°"
    },
    {
      "_id": "5fa6da6e1dc3c79146acbd99",
      "articlenumber": 87010256,
      "category": "GR",
      "dia": 10,
      "type": "DF",
      "code": "T10",
      "approved": "true",
      "name": "PN 10 RSL 12L"
    },
    {
      "_id": "5fa6da6e1dc3c79146acbdb8",
      "articlenumber": 87010297,
      "category": "GR",
      "dia": 10,
      "type": "DF",
      "code": "T41",
      "approved": "true",
      "name": "PN 10 RSL 12L 45°"
    },
    {
      "_id": "5fa6da6e1dc3c79146acbdd5",
      "articlenumber": 87010337,
      "category": "GR",
      "dia": 10,
      "type": "DF",
      "code": "T70",
      "approved": "true",
      "name": "PN 10 RSL 12L 90°"
    },
    {
      "_id": "5fa6da6e1dc3c79146acbd9c",
      "articlenumber": 87010258,
      "category": "GR",
      "dia": 10,
      "type": "DF",
      "code": "T12",
      "approved": "true",
      "name": "PN 10 RSL 15L"
    },
    {
      "_id": "5fa6da6e1dc3c79146acbdb9",
      "articlenumber": 87010299,
      "category": "GR",
      "dia": 10,
      "type": "DF",
      "code": "T43",
      "approved": "true",
      "name": "PN 10 RSL 15L 45°"
    },
    {
      "_id": "5fa6da6e1dc3c79146acbdd8",
      "articlenumber": 87010339,
      "category": "GR",
      "dia": 10,
      "type": "DF",
      "code": "T72",
      "approved": "true",
      "name": "PN 10 RSL 15L 90°"
    },
    {
      "_id": "5fa6da6e1dc3c79146acbd9a",
      "articlenumber": 87010257,
      "category": "GR",
      "dia": 10,
      "type": "DF",
      "code": "T11",
      "approved": "true",
      "name": "PN 10 RSS 14S"
    },
    {
      "_id": "5fa6da6e1dc3c79146acbdba",
      "articlenumber": 87010298,
      "category": "GR",
      "dia": 10,
      "type": "DF",
      "code": "T42",
      "approved": "true",
      "name": "PN 10 RSS 14S 45°"
    },
    {
      "_id": "5fa6da6e1dc3c79146acbdd6",
      "articlenumber": 87010338,
      "category": "GR",
      "dia": 10,
      "type": "DF",
      "code": "T71",
      "approved": "true",
      "name": "PN 10 RSS 14S 90°"
    },
    {
      "_id": "5fa6da6e1dc3c79146acbe01",
      "articlenumber": 87010930,
      "category": "GR",
      "dia": 10,
      "type": "DF",
      "code": "U22",
      "approved": "true",
      "name": "PN 10 SFL 1/2\" 90°"
    },
    {
      "_id": "5fa6da6e1dc3c79146acbe8d",
      "articlenumber": 87011172,
      "category": "GR",
      "dia": 10,
      "type": "DF",
      "code": "Y02",
      "approved": "true",
      "name": "PN 10 VB"
    }
  ]
}