%YAML 1.1
%TAG !u! tag:unity3d.com,2011:
--- !u!1045 &1
EditorBuildSettings:
  m_ObjectHideFlags: 0
  serializedVersion: 2
  m_Scenes:
  - enabled: 1
    path: Assets/Scenes/StartScreen.unity
    guid: 44a5ed6883bd74fa58dd98a44542f75d
  - enabled: 1
    path: Assets/Scenes/ChoosePipeScreen.unity
    guid: 984273193e1944674987b71de599c7e7
  - enabled: 1
    path: Assets/Scenes/LoadingScreen.unity
    guid: 0bc5fe6dbbc0b49069bef5e2a54ee538
  - enabled: 1
    path: Assets/Scenes/PlaceInArScreen.unity
    guid: f80356b9dfc324116af4b661544131ed
  - enabled: 1
    path: Assets/Scenes/ChooseArmaturesScreen.unity
    guid: 1d10862069732403ea6f9c6a022ded20
  - enabled: 1
    path: Assets/Scenes/OrderOverviewScreen.unity
    guid: 263f4bd879dc546b2857f0cd142a4da1
  - enabled: 1
    path: Assets/Scenes/ErrorScreen.unity
    guid: 0e9c03bd427074772853205587861105
  - enabled: 1
    path: Assets/Scenes/OrderScreen.unity
    guid: 6f66bdd9e207a45f1b757c6feae782e1
  m_configObjects:
    Unity.XR.WindowsMR.Settings: {fileID: 11400000, guid: 744b813df90924c169af73489b8325de,
      type: 2}
    com.unity.xr.arcore.PlayerSettings: {fileID: 11400000, guid: c2f7b8d7c0bff4d10874cbcf3f24af78,
      type: 2}
    com.unity.xr.arkit.PlayerSettings: {fileID: 11400000, guid: e97270741fbe24808bd8d247741d3a4f,
      type: 2}
    com.unity.xr.magicleap.magic_leap_settings: {fileID: 11400000, guid: 1eb95d77acb39444e8cf44313496a874,
      type: 2}
    com.unity.xr.management.loader_settings: {fileID: 11400000, guid: 58f40b12bbc864f3c96c6505a9a1e1e3,
      type: 2}
